***********************************************************
launching ALPACA on Problem05_label47_false-unreach-call.c
***********************************************************

constructing the AST took 2.5433s
initial instrumentation took 0.6050s

---------------------------------------------------
iteration 1
---------------------------------------------------

ESBMC_incr found legitimate reachability after 151.8221s:
 0 == X_int_0[0] - 6 || 0 == X_int_0[0] - 5 || 0 == X_int_0[0] - 4 || 0 == X_int_0[0] - 3 || 0 == X_int_0[0] - 2 || 0 == X_int_0[0] - 1 && 0 == X_int_0[7] - 6 || 0 == X_int_0[7] - 5 || 0 == X_int_0[7] - 4 || 0 == X_int_0[7] - 3 || 0 == X_int_0[7] - 2 || 0 == X_int_0[7] - 1 && 0 != X_int_0[0] - 2 && 0 != X_int_0[0] - 3 && 0 != X_int_0[0] - 4 && 0 != X_int_0[0] - 5 && 0 != X_int_0[0] - 6 && 0 == X_int_0[1] - 1 && 0 == X_int_0[2] - 4 && 0 == X_int_0[3] - 1 && 0 == X_int_0[4] - 6 && 0 == X_int_0[5] - 4 && 0 == X_int_0[6] - 6
 (concrete witness -> CPA -> parsing witness took 301.6645s)
 (directed symex took 205.7516s)

Pesco found legitimate reachability after 580.2065s:
 0 == X_int_0[7] - 6 || 0 == X_int_0[7] - 5 || 0 == X_int_0[7] - 4 || 0 == X_int_0[7] - 3 || 0 == X_int_0[7] - 2 || 0 == X_int_0[7] - 1 && 0 == X_int_0[0] - 1 && 0 == X_int_0[1] - 1 && 0 == X_int_0[2] - 4 && 0 == X_int_0[3] - 1 && 0 == X_int_0[4] - 6 && 0 == X_int_0[5] - 4 && 0 == X_int_0[6] - 6
 (parsing witness took 77.4164s)
 (directed symex took 163.8598s)

instrumentation took 0.4623s

---------------------------------------------------
iteration 2
---------------------------------------------------

no new reachability evidence found after 903.0965s:
 -> generalizing

trying to block singletons of:
 0 == X_int_0[7] - 6 || 0 == X_int_0[7] - 5 || 0 == X_int_0[7] - 4 || 0 == X_int_0[7] - 3 || 0 == X_int_0[7] - 2 || 0 == X_int_0[7] - 1 && 0 == X_int_0[0] - 1 && 0 == X_int_0[1] - 1 && 0 == X_int_0[2] - 4 && 0 == X_int_0[3] - 1 && 0 == X_int_0[4] - 6 && 0 == X_int_0[5] - 4 && 0 == X_int_0[6] - 6

running blocking in chunks of 6 until new evidence is found


could not block any singletons
-> moving to top
generalization took 1730.6013s
instrumentation took 0.5982s
enforcing disjointness took 0.0000s

***********************************************************
terminating ALPACA after 3723.7197s
***********************************************************

Comprehensive State Characterization:

  Partition:
    Upper Bound:
      1
    Lower Bound:
      0 == X_int_0[0] - 6 || 0 == X_int_0[0] - 5 || 0 == X_int_0[0] - 4 || 0 == X_int_0[0] - 3 || 0 == X_int_0[0] - 2 || 0 == X_int_0[0] - 1 && 0 == X_int_0[7] - 6 || 0 == X_int_0[7] - 5 || 0 == X_int_0[7] - 4 || 0 == X_int_0[7] - 3 || 0 == X_int_0[7] - 2 || 0 == X_int_0[7] - 1 && 0 != X_int_0[0] - 2 && 0 != X_int_0[0] - 3 && 0 != X_int_0[0] - 4 && 0 != X_int_0[0] - 5 && 0 != X_int_0[0] - 6 && 0 == X_int_0[1] - 1 && 0 == X_int_0[2] - 4 && 0 == X_int_0[3] - 1 && 0 == X_int_0[4] - 6 && 0 == X_int_0[5] - 4 && 0 == X_int_0[6] - 6
      0 == X_int_0[7] - 6 || 0 == X_int_0[7] - 5 || 0 == X_int_0[7] - 4 || 0 == X_int_0[7] - 3 || 0 == X_int_0[7] - 2 || 0 == X_int_0[7] - 1 && 0 == X_int_0[0] - 1 && 0 == X_int_0[1] - 1 && 0 == X_int_0[2] - 4 && 0 == X_int_0[3] - 1 && 0 == X_int_0[4] - 6 && 0 == X_int_0[5] - 4 && 0 == X_int_0[6] - 6
    Assumptions:
      X_int_0[0] - 1073741823 <= 0 && 0 <= X_int_0[0] + 1073741823 && X_int_0[1] - 1073741823 <= 0 && 0 <= X_int_0[1] + 1073741823 && X_int_0[2] - 1073741823 <= 0 && 0 <= X_int_0[2] + 1073741823 && X_int_0[3] - 1073741823 <= 0 && 0 <= X_int_0[3] + 1073741823 && X_int_0[4] - 1073741823 <= 0 && 0 <= X_int_0[4] + 1073741823 && X_int_0[5] - 1073741823 <= 0 && 0 <= X_int_0[5] + 1073741823 && X_int_0[6] - 1073741823 <= 0 && 0 <= X_int_0[6] + 1073741823 && X_int_0[7] - 1073741823 <= 0 && 0 <= X_int_0[7] + 1073741823
      X_int_0[0] - 1073741823 <= 0 && 0 <= X_int_0[0] + 1073741823 && X_int_0[1] - 1073741823 <= 0 && 0 <= X_int_0[1] + 1073741823 && X_int_0[2] - 1073741823 <= 0 && 0 <= X_int_0[2] + 1073741823 && X_int_0[3] - 1073741823 <= 0 && 0 <= X_int_0[3] + 1073741823 && X_int_0[4] - 1073741823 <= 0 && 0 <= X_int_0[4] + 1073741823 && X_int_0[5] - 1073741823 <= 0 && 0 <= X_int_0[5] + 1073741823 && X_int_0[6] - 1073741823 <= 0 && 0 <= X_int_0[6] + 1073741823 && X_int_0[7] - 1073741823 <= 0 && 0 <= X_int_0[7] + 1073741823

*** upper bounds cover the entire domain ***
