***********************************************************
launching ALPACA on Problem13_label21_false-unreach-call.c
***********************************************************

constructing the AST took 1.6273s
initial instrumentation took 0.3600s

---------------------------------------------------
iteration 1
---------------------------------------------------

CPA_Seq found legitimate reachability after 44.6673s:
 0 == X_int_0[4] - 6 || 0 == X_int_0[4] - 5 || 0 == X_int_0[4] - 4 || 0 == X_int_0[4] - 3 || 0 == X_int_0[4] - 2 && 0 == X_int_0[0] - 2 && 0 == X_int_0[1] - 6 && 0 == X_int_0[2] - 3 && 0 == X_int_0[3] - 4
 (parsing witness took 72.1907s)
 (directed symex took 138.8279s)

instrumentation took 0.3163s

---------------------------------------------------
iteration 2
---------------------------------------------------

no new reachability evidence found after 902.9371s:
 -> generalizing

trying to block singletons of:
 0 == X_int_0[4] - 6 || 0 == X_int_0[4] - 5 || 0 == X_int_0[4] - 4 || 0 == X_int_0[4] - 3 || 0 == X_int_0[4] - 2 && 0 == X_int_0[0] - 2 && 0 == X_int_0[1] - 6 && 0 == X_int_0[2] - 3 && 0 == X_int_0[3] - 4


could not block any singletons
-> moving to top
generalization took 1022.0736s
instrumentation took 0.4164s
enforcing disjointness took 0.0000s

***********************************************************
terminating ALPACA after 2805.2350s
***********************************************************

Comprehensive State Characterization:

  Partition:
    Upper Bound:
      1
    Lower Bound:
      0 == X_int_0[4] - 6 || 0 == X_int_0[4] - 5 || 0 == X_int_0[4] - 4 || 0 == X_int_0[4] - 3 || 0 == X_int_0[4] - 2 && 0 == X_int_0[0] - 2 && 0 == X_int_0[1] - 6 && 0 == X_int_0[2] - 3 && 0 == X_int_0[3] - 4
    Assumptions:
      X_int_0[0] - 1073741823 <= 0 && 0 <= X_int_0[0] + 1073741823 && X_int_0[1] - 1073741823 <= 0 && 0 <= X_int_0[1] + 1073741823 && X_int_0[2] - 1073741823 <= 0 && 0 <= X_int_0[2] + 1073741823 && X_int_0[3] - 1073741823 <= 0 && 0 <= X_int_0[3] + 1073741823 && X_int_0[4] - 1073741823 <= 0 && 0 <= X_int_0[4] + 1073741823

*** upper bounds cover the entire domain ***
