***********************************************************
launching ALPACA on Problem13_label12_false-unreach-call.c
***********************************************************

constructing the AST took 4.1479s
initial instrumentation took 0.8516s

---------------------------------------------------
iteration 1
---------------------------------------------------

ESBMC_incr found legitimate reachability after 85.2370s:
 0 == X_int_0[4] - 6 || 0 == X_int_0[4] - 5 || 0 == X_int_0[4] - 4 || 0 == X_int_0[4] - 3 || 0 == X_int_0[4] - 2 && 0 == X_int_0[0] - 6 && 0 == X_int_0[1] - 4 && 0 == X_int_0[2] - 4 && 0 == X_int_0[3] - 3
 (concrete witness -> CPA -> parsing witness took 112.0730s)
 (directed symex took 154.9798s)

CPA_Seq found legitimate reachability after 236.9084s:
 0 == X_int_0[4] - 6 || 0 == X_int_0[4] - 5 || 0 == X_int_0[4] - 4 || 0 == X_int_0[4] - 3 || 0 == X_int_0[4] - 2 && 0 == X_int_0[0] - 6 && 0 == X_int_0[1] - 4 && 0 == X_int_0[2] - 4 && 0 == X_int_0[3] - 3
 (parsing witness took 86.0540s)
 (directed symex took 124.5322s)

instrumentation took 0.2948s

---------------------------------------------------
iteration 2
---------------------------------------------------

no new reachability evidence found after 877.5843s:
 -> generalizing

trying to block singletons of:
 0 == X_int_0[4] - 6 || 0 == X_int_0[4] - 5 || 0 == X_int_0[4] - 4 || 0 == X_int_0[4] - 3 || 0 == X_int_0[4] - 2 && 0 == X_int_0[0] - 6 && 0 == X_int_0[1] - 4 && 0 == X_int_0[2] - 4 && 0 == X_int_0[3] - 3


could not block any singletons
-> moving to top
generalization took 977.8451s
instrumentation took 0.3546s
enforcing disjointness took 0.0000s

***********************************************************
terminating ALPACA after 2738.8481s
***********************************************************

Comprehensive State Characterization:

  Partition:
    Upper Bound:
      1
    Lower Bound:
      0 == X_int_0[4] - 6 || 0 == X_int_0[4] - 5 || 0 == X_int_0[4] - 4 || 0 == X_int_0[4] - 3 || 0 == X_int_0[4] - 2 && 0 == X_int_0[0] - 6 && 0 == X_int_0[1] - 4 && 0 == X_int_0[2] - 4 && 0 == X_int_0[3] - 3
    Assumptions:
      X_int_0[0] - 1073741823 <= 0 && 0 <= X_int_0[0] + 1073741823 && X_int_0[1] - 1073741823 <= 0 && 0 <= X_int_0[1] + 1073741823 && X_int_0[2] - 1073741823 <= 0 && 0 <= X_int_0[2] + 1073741823 && X_int_0[3] - 1073741823 <= 0 && 0 <= X_int_0[3] + 1073741823 && X_int_0[4] - 1073741823 <= 0 && 0 <= X_int_0[4] + 1073741823

*** upper bounds cover the entire domain ***
