***********************************************************
launching ALPACA on Problem02_label13_false-unreach-call_false-termination.c
***********************************************************

constructing the AST took 0.8010s
initial instrumentation took 0.1902s

---------------------------------------------------
iteration 1
---------------------------------------------------

CPA_BAM_BnB found legitimate reachability after 18.2927s:
 0 == X_int_0[2] - 6 || 0 == X_int_0[2] - 5 || 0 == X_int_0[2] - 4 || 0 == X_int_0[2] - 3 || 0 == X_int_0[2] - 1 && 0 == X_int_0[0] - 3 && 0 == X_int_0[1] - 5
 (parsing witness took 18.2309s)
 (directed symex took 9.3826s)

CPA_Seq found legitimate reachability after 8.9330s:
 0 == X_int_0[2] - 6 || 0 == X_int_0[2] - 5 || 0 == X_int_0[2] - 4 || 0 == X_int_0[2] - 3 || 0 == X_int_0[2] - 1 && 0 == X_int_0[0] - 3 && 0 == X_int_0[1] - 5
 (parsing witness took 34.9055s)
 (directed symex took 9.8099s)

VeriAbs found legitimate reachability after 39.3407s:
 0 == X_int_0[2] - 6 || 0 == X_int_0[2] - 5 || 0 == X_int_0[2] - 4 || 0 == X_int_0[2] - 3 || 0 == X_int_0[2] - 1 && 0 == X_int_0[0] - 3 && 0 == X_int_0[1] - 5
 (parsing witness took 11.7886s)
 (directed symex took 9.2945s)

CBMC found legitimate reachability after 2.6979s:
 0 == X_int_0[3] - 6 || 0 == X_int_0[3] - 5 || 0 == X_int_0[3] - 4 || 0 == X_int_0[3] - 3 || 0 == X_int_0[3] - 1 && 0 == X_int_0[0] - 3 && 0 == X_int_0[1] - 1 && 0 == X_int_0[2] - 5
 (concrete witness -> CPA -> parsing witness took 48.6412s)
 (directed symex took 10.6720s)

ESBMC_incr found legitimate reachability after 2.1384s:
 0 == X_int_0[2] - 6 || 0 == X_int_0[2] - 5 || 0 == X_int_0[2] - 4 || 0 == X_int_0[2] - 3 || 0 == X_int_0[2] - 1 && 0 == X_int_0[0] - 3 && 0 == X_int_0[1] - 5
 (concrete witness -> CPA -> parsing witness took 42.0462s)
 (directed symex took 9.4969s)

ESBMC_kind found legitimate reachability after 1.9504s:
 0 == X_int_0[2] - 6 || 0 == X_int_0[2] - 5 || 0 == X_int_0[2] - 4 || 0 == X_int_0[2] - 3 || 0 == X_int_0[2] - 1 && 0 == X_int_0[0] - 3 && 0 == X_int_0[1] - 5
 (concrete witness -> CPA -> parsing witness took 42.3424s)
 (directed symex took 10.1481s)

Symbiotic found legitimate reachability after 4.3283s:
 0 == X_int_0[2] - 6 || 0 == X_int_0[2] - 5 || 0 == X_int_0[2] - 4 || 0 == X_int_0[2] - 3 || 0 == X_int_0[2] - 1 && 0 == X_int_0[0] - 3 && 0 == X_int_0[1] - 5
 (concrete witness -> CPA -> parsing witness took 42.7964s)
 (directed symex took 9.8539s)

Pesco found legitimate reachability after 30.5248s:
 0 == X_int_0[2] - 6 || 0 == X_int_0[2] - 5 || 0 == X_int_0[2] - 4 || 0 == X_int_0[2] - 3 || 0 == X_int_0[2] - 1 && 0 == X_int_0[0] - 3 && 0 == X_int_0[1] - 5
 (parsing witness took 16.7237s)
 (directed symex took 9.1476s)

UAutomizer found legitimate reachability after 66.4465s:
 0 == X_int_0[2] - 6 || 0 == X_int_0[2] - 5 || 0 == X_int_0[2] - 4 || 0 == X_int_0[2] - 3 || 0 == X_int_0[2] - 1 && 0 == X_int_0[0] - 3 && 0 == X_int_0[1] - 5
 (parsing witness took 7.9357s)
 (directed symex took 9.5531s)

UTaipan found legitimate reachability after 79.0063s:
 0 == X_int_0[2] - 6 || 0 == X_int_0[2] - 5 || 0 == X_int_0[2] - 4 || 0 == X_int_0[2] - 3 || 0 == X_int_0[2] - 1 && 0 == X_int_0[0] - 3 && 0 == X_int_0[1] - 5
 (parsing witness took 8.6895s)
 (directed symex took 6.0184s)

UKojak found legitimate reachability after 152.7271s:
 0 == X_int_0[2] - 6 || 0 == X_int_0[2] - 5 || 0 == X_int_0[2] - 4 || 0 == X_int_0[2] - 3 || 0 == X_int_0[2] - 1 && 0 == X_int_0[0] - 3 && 0 == X_int_0[1] - 5
 (parsing witness took 4.1313s)
 (directed symex took 6.4342s)

instrumentation took 0.0320s

---------------------------------------------------
iteration 2
---------------------------------------------------

CBMC found legitimate reachability after 2.6669s:
 0 == X_int_0[5] - 6 || 0 == X_int_0[5] - 5 || 0 == X_int_0[5] - 4 || 0 == X_int_0[5] - 3 || 0 == X_int_0[5] - 1 && 0 == X_int_0[0] - 3 && 0 == X_int_0[1] - 1 && 0 == X_int_0[2] - 1 && 0 == X_int_0[3] - 1 && 0 == X_int_0[4] - 5
 (concrete witness -> CPA -> parsing witness took 49.4220s)
 (directed symex took 7.4086s)

ESBMC_kind found legitimate reachability after 3.9901s:
 0 == X_int_0[6] - 6 || 0 == X_int_0[6] - 5 || 0 == X_int_0[6] - 4 || 0 == X_int_0[6] - 3 || 0 == X_int_0[6] - 1 && 0 == X_int_0[0] - 3 && 0 == X_int_0[1] - 1 && 0 == X_int_0[2] - 1 && 0 == X_int_0[3] - 1 && 0 == X_int_0[4] - 1 && 0 == X_int_0[5] - 5
 (concrete witness -> CPA -> parsing witness took 50.3527s)
 (directed symex took 7.9096s)

Symbiotic found legitimate reachability after 4.7801s:
 0 == X_int_0[5] - 6 || 0 == X_int_0[5] - 5 || 0 == X_int_0[5] - 4 || 0 == X_int_0[5] - 3 || 0 == X_int_0[5] - 1 && 0 == X_int_0[0] - 3 && 0 == X_int_0[1] - 1 && 0 == X_int_0[2] - 1 && 0 == X_int_0[3] - 1 && 0 == X_int_0[4] - 5
 (concrete witness -> CPA -> parsing witness took 50.5703s)
 (directed symex took 8.0760s)

Pesco found legitimate reachability after 104.9947s:
 0 == X_int_0[5] - 6 || 0 == X_int_0[5] - 5 || 0 == X_int_0[5] - 4 || 0 == X_int_0[5] - 3 || 0 == X_int_0[5] - 1 && 0 == X_int_0[0] - 3 && 0 == X_int_0[1] - 1 && 0 == X_int_0[2] - 1 && 0 == X_int_0[3] - 1 && 0 == X_int_0[4] - 5
 (parsing witness took 9.3928s)
 (directed symex took 10.0345s)

VeriAbs found legitimate reachability after 116.4455s:
 0 == X_int_0[5] - 6 || 0 == X_int_0[5] - 5 || 0 == X_int_0[5] - 4 || 0 == X_int_0[5] - 3 || 0 == X_int_0[5] - 1 && 0 == X_int_0[0] - 3 && 0 == X_int_0[1] - 1 && 0 == X_int_0[2] - 1 && 0 == X_int_0[3] - 1 && 0 == X_int_0[4] - 5
 (parsing witness took 12.1689s)
 (directed symex took 7.0603s)

UAutomizer found legitimate reachability after 190.0854s:
 0 == X_int_0[5] - 6 || 0 == X_int_0[5] - 5 || 0 == X_int_0[5] - 4 || 0 == X_int_0[5] - 3 || 0 == X_int_0[5] - 1 && 0 == X_int_0[0] - 3 && 0 == X_int_0[1] - 1 && 0 == X_int_0[2] - 1 && 0 == X_int_0[3] - 1 && 0 == X_int_0[4] - 5
 (parsing witness took 6.4925s)
 (directed symex took 6.7991s)

UTaipan found legitimate reachability after 220.7957s:
 0 == X_int_0[5] - 6 || 0 == X_int_0[5] - 5 || 0 == X_int_0[5] - 4 || 0 == X_int_0[5] - 3 || 0 == X_int_0[5] - 1 && 0 == X_int_0[0] - 3 && 0 == X_int_0[1] - 1 && 0 == X_int_0[2] - 1 && 0 == X_int_0[3] - 1 && 0 == X_int_0[4] - 5
 (parsing witness took 4.2330s)
 (directed symex took 6.7391s)

instrumentation took 0.0257s

---------------------------------------------------
iteration 3
---------------------------------------------------

ESBMC_kind found legitimate reachability after 3.3280s:
 0 == X_int_0[8] - 6 || 0 == X_int_0[8] - 5 || 0 == X_int_0[8] - 4 || 0 == X_int_0[8] - 3 || 0 == X_int_0[8] - 1 && 0 == X_int_0[0] - 3 && 0 == X_int_0[1] - 1 && 0 == X_int_0[2] - 1 && 0 == X_int_0[3] - 1 && 0 == X_int_0[4] - 1 && 0 == X_int_0[5] - 1 && 0 == X_int_0[6] - 1 && 0 == X_int_0[7] - 5
 (concrete witness -> CPA -> parsing witness took 37.3376s)
 (directed symex took 7.3062s)

CBMC found legitimate reachability after 4.9409s:
 0 == X_int_0[5] - 6 || 0 == X_int_0[5] - 5 || 0 == X_int_0[5] - 4 || 0 == X_int_0[5] - 3 || 0 == X_int_0[5] - 1 && 0 == X_int_0[9] - 6 || 0 == X_int_0[9] - 5 || 0 == X_int_0[9] - 4 || 0 == X_int_0[9] - 3 || 0 == X_int_0[9] - 1 && 0 != X_int_0[5] - 3 && 0 != X_int_0[5] - 4 && 0 != X_int_0[5] - 5 && 0 != X_int_0[5] - 6 && 0 == X_int_0[0] - 3 && 0 == X_int_0[1] - 1 && 0 == X_int_0[2] - 1 && 0 == X_int_0[3] - 1 && 0 == X_int_0[4] - 1 && 0 == X_int_0[6] - 1 && 0 == X_int_0[7] - 1 && 0 == X_int_0[8] - 5
 (concrete witness -> CPA -> parsing witness took 44.1425s)
 (directed symex took 7.8861s)

Pesco found legitimate reachability after 182.1764s:
 0 == X_int_0[8] - 6 || 0 == X_int_0[8] - 5 || 0 == X_int_0[8] - 4 || 0 == X_int_0[8] - 3 || 0 == X_int_0[8] - 1 && 0 == X_int_0[0] - 3 && 0 == X_int_0[1] - 1 && 0 == X_int_0[2] - 1 && 0 == X_int_0[3] - 1 && 0 == X_int_0[4] - 1 && 0 == X_int_0[5] - 1 && 0 == X_int_0[6] - 1 && 0 == X_int_0[7] - 5
 (parsing witness took 8.0718s)
 (directed symex took 7.7734s)

UAutomizer found legitimate reachability after 245.6469s:
 0 == X_int_0[8] - 6 || 0 == X_int_0[8] - 5 || 0 == X_int_0[8] - 4 || 0 == X_int_0[8] - 3 || 0 == X_int_0[8] - 1 && 0 == X_int_0[0] - 3 && 0 == X_int_0[1] - 1 && 0 == X_int_0[2] - 1 && 0 == X_int_0[3] - 1 && 0 == X_int_0[4] - 1 && 0 == X_int_0[5] - 1 && 0 == X_int_0[6] - 1 && 0 == X_int_0[7] - 5
 (parsing witness took 5.4371s)
 (directed symex took 7.3312s)

UTaipan found legitimate reachability after 363.5853s:
 0 == X_int_0[6] - 6 || 0 == X_int_0[6] - 5 || 0 == X_int_0[6] - 4 || 0 == X_int_0[6] - 3 || 0 == X_int_0[6] - 1 && 0 == X_int_0[8] - 6 || 0 == X_int_0[8] - 5 || 0 == X_int_0[8] - 4 || 0 == X_int_0[8] - 3 || 0 == X_int_0[8] - 1 && 0 != X_int_0[6] - 3 && 0 != X_int_0[6] - 4 && 0 != X_int_0[6] - 5 && 0 != X_int_0[6] - 6 && 0 == X_int_0[0] - 3 && 0 == X_int_0[1] - 1 && 0 == X_int_0[2] - 1 && 0 == X_int_0[3] - 1 && 0 == X_int_0[4] - 1 && 0 == X_int_0[5] - 1 && 0 == X_int_0[7] - 5
 (parsing witness took 2.3572s)
 (directed symex took 7.2081s)

instrumentation took 0.0306s

---------------------------------------------------
iteration 4
---------------------------------------------------

ESBMC_kind found legitimate reachability after 8.1067s:
 0 == X_int_0[3] - 6 || 0 == X_int_0[3] - 5 || 0 == X_int_0[3] - 4 || 0 == X_int_0[3] - 3 || 0 == X_int_0[3] - 1 && 0 == X_int_0[0] - 3 && 0 == X_int_0[10] - 1 && 0 == X_int_0[11] - 1 && 0 == X_int_0[1] - 1 && 0 == X_int_0[2] - 5 && 0 == X_int_0[4] - 1 && 0 == X_int_0[5] - 1 && 0 == X_int_0[6] - 1 && 0 == X_int_0[7] - 1 && 0 == X_int_0[8] - 1 && 0 == X_int_0[9] - 1
 (concrete witness -> CPA -> parsing witness took 47.3766s)
 (directed symex took 9.7369s)

CBMC found legitimate reachability after 5.3003s:
 0 == X_int_0[3] - 6 || 0 == X_int_0[3] - 5 || 0 == X_int_0[3] - 4 || 0 == X_int_0[3] - 3 || 0 == X_int_0[3] - 1 && 0 == X_int_0[0] - 3 && 0 == X_int_0[10] - 1 && 0 == X_int_0[11] - 1 && 0 == X_int_0[1] - 1 && 0 == X_int_0[2] - 5 && 0 == X_int_0[4] - 1 && 0 == X_int_0[5] - 1 && 0 == X_int_0[6] - 1 && 0 == X_int_0[7] - 1 && 0 == X_int_0[8] - 1 && 0 == X_int_0[9] - 1
 (concrete witness -> CPA -> parsing witness took 51.1620s)
 (directed symex took 8.8631s)

Pesco found legitimate reachability after 415.5609s:
 0 == X_int_0[3] - 6 || 0 == X_int_0[3] - 5 || 0 == X_int_0[3] - 4 || 0 == X_int_0[3] - 3 || 0 == X_int_0[3] - 1 && 0 == X_int_0[0] - 3 && 0 == X_int_0[10] - 1 && 0 == X_int_0[11] - 1 && 0 == X_int_0[1] - 1 && 0 == X_int_0[2] - 5 && 0 == X_int_0[4] - 1 && 0 == X_int_0[5] - 1 && 0 == X_int_0[6] - 1 && 0 == X_int_0[7] - 1 && 0 == X_int_0[8] - 1 && 0 == X_int_0[9] - 1
 (parsing witness took 9.6403s)
 (directed symex took 8.4574s)

previous DBM:
( +∞  2  1 -5 -1 -3 -1 -3 -1 -3  3 -7 -1 -3 -1 -3 -1 -3 -1 -3 -1 -3 -1 -3 )
( 10 +∞  8  2  6  4  6  4  6  4 10  0  6  4  6  4  6  4  6  4  6  4  6  4 )
(  2 -5 +∞  6 -3 -5 -3 -5 -3 -5  1 -9 -3 -5 -3 -5 -3 -5 -3 -5 -3 -5 -3 -5 )
(  8  1  4 +∞  3  1  3  1  3  1  7 -3  3  1  3  1  3  1  3  1  3  1  3  1 )
(  4 -3  1 -5 +∞  2 -1 -3 -1 -3  3 -7 -1 -3 -1 -3 -1 -3 -1 -3 -1 -3 -1 -3 )
(  6 -1  3 -3  0 +∞  1 -1  1 -1  5 -5  1 -1  1 -1  1 -1  1 -1  1 -1  1 -1 )
(  4 -3  1 -5 -1 -3 +∞  2 -1 -3  3 -7 -1 -3 -1 -3 -1 -3 -1 -3 -1 -3 -1 -3 )
(  6 -1  3 -3  1 -1  0 +∞  1 -1  5 -5  1 -1  1 -1  1 -1  1 -1  1 -1  1 -1 )
(  4 -3  1 -5 -1 -3 -1 -3 +∞  2  3 -7 -1 -3 -1 -3 -1 -3 -1 -3 -1 -3 -1 -3 )
(  6 -1  3 -3  1 -1  1 -1  0 +∞  5 -5  1 -1  1 -1  1 -1  1 -1  1 -1  1 -1 )
(  0 -7 -3 -9 -5 -7 -5 -7 -5 -7 +∞ 10 -5 -7 -5 -7 -5 -7 -5 -7 -5 -7 -5 -7 )
( 10  3  7  1  5  3  5  3  5  3  8 +∞  5  3  5  3  5  3  5  3  5  3  5  3 )
(  4 -3  1 -5 -1 -3 -1 -3 -1 -3  3 -7 +∞  2 -1 -3 -1 -3 -1 -3 -1 -3 -1 -3 )
(  6 -1  3 -3  1 -1  1 -1  1 -1  5 -5  0 +∞  1 -1  1 -1  1 -1  1 -1  1 -1 )
(  4 -3  1 -5 -1 -3 -1 -3 -1 -3  3 -7 -1 -3 +∞  2 -1 -3 -1 -3 -1 -3 -1 -3 )
(  6 -1  3 -3  1 -1  1 -1  1 -1  5 -5  1 -1  0 +∞  1 -1  1 -1  1 -1  1 -1 )
(  4 -3  1 -5 -1 -3 -1 -3 -1 -3  3 -7 -1 -3 -1 -3 +∞  2 -1 -3 -1 -3 -1 -3 )
(  6 -1  3 -3  1 -1  1 -1  1 -1  5 -5  1 -1  1 -1  0 +∞  1 -1  1 -1  1 -1 )
(  4 -3  1 -5 -1 -3 -1 -3 -1 -3  3 -7 -1 -3 -1 -3 -1 -3 +∞  2 -1 -3 -1 -3 )
(  6 -1  3 -3  1 -1  1 -1  1 -1  5 -5  1 -1  1 -1  1 -1  0 +∞  1 -1  1 -1 )
(  4 -3  1 -5 -1 -3 -1 -3 -1 -3  3 -7 -1 -3 -1 -3 -1 -3 -1 -3 +∞  2 -1 -3 )
(  6 -1  3 -3  1 -1  1 -1  1 -1  5 -5  1 -1  1 -1  1 -1  1 -1  0 +∞  1 -1 )
(  4 -3  1 -5 -1 -3 -1 -3 -1 -3  3 -7 -1 -3 -1 -3 -1 -3 -1 -3 -1 -3 +∞  2 )
(  6 -1  3 -3  1 -1  1 -1  1 -1  5 -5  1 -1  1 -1  1 -1  1 -1  1 -1  0 +∞ )

current DBM:
( +∞  2  1 -5 -1 -3 -1 -3 -1 -3  3 -7 -1 -3 -1 -3 -1 -3 -1 -3 -1 -3 -1 -3 )
( 10 +∞  8  2  6  4  6  4  6  4 10  0  6  4  6  4  6  4  6  4  6  4  6  4 )
(  2 -5 +∞  6 -3 -5 -3 -5 -3 -5  1 -9 -3 -5 -3 -5 -3 -5 -3 -5 -3 -5 -3 -5 )
(  8  1  4 +∞  3  1  3  1  3  1  7 -3  3  1  3  1  3  1  3  1  3  1  3  1 )
(  4 -3  1 -5 +∞  2 -1 -3 -1 -3  3 -7 -1 -3 -1 -3 -1 -3 -1 -3 -1 -3 -1 -3 )
(  6 -1  3 -3  0 +∞  1 -1  1 -1  5 -5  1 -1  1 -1  1 -1  1 -1  1 -1  1 -1 )
(  4 -3  1 -5 -1 -3 +∞  2 -1 -3  3 -7 -1 -3 -1 -3 -1 -3 -1 -3 -1 -3 -1 -3 )
(  6 -1  3 -3  1 -1  0 +∞  1 -1  5 -5  1 -1  1 -1  1 -1  1 -1  1 -1  1 -1 )
(  4 -3  1 -5 -1 -3 -1 -3 +∞  2  3 -7 -1 -3 -1 -3 -1 -3 -1 -3 -1 -3 -1 -3 )
(  6 -1  3 -3  1 -1  1 -1  0 +∞  5 -5  1 -1  1 -1  1 -1  1 -1  1 -1  1 -1 )
(  0 -7 -3 -9 -5 -7 -5 -7 -5 -7 +∞ 10 -5 -7 -5 -7 -5 -7 -5 -7 -5 -7 -5 -7 )
( 10  3  7  1  5  3  5  3  5  3  8 +∞  5  3  5  3  5  3  5  3  5  3  5  3 )
(  4 -3  1 -5 -1 -3 -1 -3 -1 -3  3 -7 +∞  2 -1 -3 -1 -3 -1 -3 -1 -3 -1 -3 )
(  6 -1  3 -3  1 -1  1 -1  1 -1  5 -5  0 +∞  1 -1  1 -1  1 -1  1 -1  1 -1 )
(  4 -3  1 -5 -1 -3 -1 -3 -1 -3  3 -7 -1 -3 +∞  2 -1 -3 -1 -3 -1 -3 -1 -3 )
(  6 -1  3 -3  1 -1  1 -1  1 -1  5 -5  1 -1  0 +∞  1 -1  1 -1  1 -1  1 -1 )
(  4 -3  1 -5 -1 -3 -1 -3 -1 -3  3 -7 -1 -3 -1 -3 +∞  2 -1 -3 -1 -3 -1 -3 )
(  6 -1  3 -3  1 -1  1 -1  1 -1  5 -5  1 -1  1 -1  0 +∞  1 -1  1 -1  1 -1 )
(  4 -3  1 -5 -1 -3 -1 -3 -1 -3  3 -7 -1 -3 -1 -3 -1 -3 +∞  2 -1 -3 -1 -3 )
(  6 -1  3 -3  1 -1  1 -1  1 -1  5 -5  1 -1  1 -1  1 -1  0 +∞  1 -1  1 -1 )
(  4 -3  1 -5 -1 -3 -1 -3 -1 -3  3 -7 -1 -3 -1 -3 -1 -3 -1 -3 +∞  2 -1 -3 )
(  6 -1  3 -3  1 -1  1 -1  1 -1  5 -5  1 -1  1 -1  1 -1  1 -1  0 +∞  1 -1 )
(  4 -3  1 -5 -1 -3 -1 -3 -1 -3  3 -7 -1 -3 -1 -3 -1 -3 -1 -3 -1 -3 +∞  2 )
(  6 -1  3 -3  1 -1  1 -1  1 -1  5 -5  1 -1  1 -1  1 -1  1 -1  1 -1  0 +∞ )

widened DBM:
( +∞  2  1 -5 -1 -3 -1 -3 -1 -3  3 -7 -1 -3 -1 -3 -1 -3 -1 -3 -1 -3 -1 -3 )
( 10 +∞  8  2  6  4  6  4  6  4 10  0  6  4  6  4  6  4  6  4  6  4  6  4 )
(  2 -5 +∞  6 -3 -5 -3 -5 -3 -5  1 -9 -3 -5 -3 -5 -3 -5 -3 -5 -3 -5 -3 -5 )
(  8  1  4 +∞  3  1  3  1  3  1  7 -3  3  1  3  1  3  1  3  1  3  1  3  1 )
(  4 -3  1 -5 +∞  2 -1 -3 -1 -3  3 -7 -1 -3 -1 -3 -1 -3 -1 -3 -1 -3 -1 -3 )
(  6 -1  3 -3  0 +∞  1 -1  1 -1  5 -5  1 -1  1 -1  1 -1  1 -1  1 -1  1 -1 )
(  4 -3  1 -5 -1 -3 +∞  2 -1 -3  3 -7 -1 -3 -1 -3 -1 -3 -1 -3 -1 -3 -1 -3 )
(  6 -1  3 -3  1 -1  0 +∞  1 -1  5 -5  1 -1  1 -1  1 -1  1 -1  1 -1  1 -1 )
(  4 -3  1 -5 -1 -3 -1 -3 +∞  2  3 -7 -1 -3 -1 -3 -1 -3 -1 -3 -1 -3 -1 -3 )
(  6 -1  3 -3  1 -1  1 -1  0 +∞  5 -5  1 -1  1 -1  1 -1  1 -1  1 -1  1 -1 )
(  0 -7 -3 -9 -5 -7 -5 -7 -5 -7 +∞ 10 -5 -7 -5 -7 -5 -7 -5 -7 -5 -7 -5 -7 )
( 10  3  7  1  5  3  5  3  5  3  8 +∞  5  3  5  3  5  3  5  3  5  3  5  3 )
(  4 -3  1 -5 -1 -3 -1 -3 -1 -3  3 -7 +∞  2 -1 -3 -1 -3 -1 -3 -1 -3 -1 -3 )
(  6 -1  3 -3  1 -1  1 -1  1 -1  5 -5  0 +∞  1 -1  1 -1  1 -1  1 -1  1 -1 )
(  4 -3  1 -5 -1 -3 -1 -3 -1 -3  3 -7 -1 -3 +∞  2 -1 -3 -1 -3 -1 -3 -1 -3 )
(  6 -1  3 -3  1 -1  1 -1  1 -1  5 -5  1 -1  0 +∞  1 -1  1 -1  1 -1  1 -1 )
(  4 -3  1 -5 -1 -3 -1 -3 -1 -3  3 -7 -1 -3 -1 -3 +∞  2 -1 -3 -1 -3 -1 -3 )
(  6 -1  3 -3  1 -1  1 -1  1 -1  5 -5  1 -1  1 -1  0 +∞  1 -1  1 -1  1 -1 )
(  4 -3  1 -5 -1 -3 -1 -3 -1 -3  3 -7 -1 -3 -1 -3 -1 -3 +∞  2 -1 -3 -1 -3 )
(  6 -1  3 -3  1 -1  1 -1  1 -1  5 -5  1 -1  1 -1  1 -1  0 +∞  1 -1  1 -1 )
(  4 -3  1 -5 -1 -3 -1 -3 -1 -3  3 -7 -1 -3 -1 -3 -1 -3 -1 -3 +∞  2 -1 -3 )
(  6 -1  3 -3  1 -1  1 -1  1 -1  5 -5  1 -1  1 -1  1 -1  1 -1  0 +∞  1 -1 )
(  4 -3  1 -5 -1 -3 -1 -3 -1 -3  3 -7 -1 -3 -1 -3 -1 -3 -1 -3 -1 -3 +∞  2 )
(  6 -1  3 -3  1 -1  1 -1  1 -1  5 -5  1 -1  1 -1  1 -1  1 -1  1 -1  0 +∞ )

previous DBM:
( +∞  2  1 -5 -1 -3 -1 -3 -1 -3  3 -7 -1 -3 -1 -3 -1 -3 -1 -3 -1 -3 -1 -3 )
( 10 +∞  8  2  6  4  6  4  6  4 10  0  6  4  6  4  6  4  6  4  6  4  6  4 )
(  2 -5 +∞  6 -3 -5 -3 -5 -3 -5  1 -9 -3 -5 -3 -5 -3 -5 -3 -5 -3 -5 -3 -5 )
(  8  1  4 +∞  3  1  3  1  3  1  7 -3  3  1  3  1  3  1  3  1  3  1  3  1 )
(  4 -3  1 -5 +∞  2 -1 -3 -1 -3  3 -7 -1 -3 -1 -3 -1 -3 -1 -3 -1 -3 -1 -3 )
(  6 -1  3 -3  0 +∞  1 -1  1 -1  5 -5  1 -1  1 -1  1 -1  1 -1  1 -1  1 -1 )
(  4 -3  1 -5 -1 -3 +∞  2 -1 -3  3 -7 -1 -3 -1 -3 -1 -3 -1 -3 -1 -3 -1 -3 )
(  6 -1  3 -3  1 -1  0 +∞  1 -1  5 -5  1 -1  1 -1  1 -1  1 -1  1 -1  1 -1 )
(  4 -3  1 -5 -1 -3 -1 -3 +∞  2  3 -7 -1 -3 -1 -3 -1 -3 -1 -3 -1 -3 -1 -3 )
(  6 -1  3 -3  1 -1  1 -1  0 +∞  5 -5  1 -1  1 -1  1 -1  1 -1  1 -1  1 -1 )
(  0 -7 -3 -9 -5 -7 -5 -7 -5 -7 +∞ 10 -5 -7 -5 -7 -5 -7 -5 -7 -5 -7 -5 -7 )
( 10  3  7  1  5  3  5  3  5  3  8 +∞  5  3  5  3  5  3  5  3  5  3  5  3 )
(  4 -3  1 -5 -1 -3 -1 -3 -1 -3  3 -7 +∞  2 -1 -3 -1 -3 -1 -3 -1 -3 -1 -3 )
(  6 -1  3 -3  1 -1  1 -1  1 -1  5 -5  0 +∞  1 -1  1 -1  1 -1  1 -1  1 -1 )
(  4 -3  1 -5 -1 -3 -1 -3 -1 -3  3 -7 -1 -3 +∞  2 -1 -3 -1 -3 -1 -3 -1 -3 )
(  6 -1  3 -3  1 -1  1 -1  1 -1  5 -5  1 -1  0 +∞  1 -1  1 -1  1 -1  1 -1 )
(  4 -3  1 -5 -1 -3 -1 -3 -1 -3  3 -7 -1 -3 -1 -3 +∞  2 -1 -3 -1 -3 -1 -3 )
(  6 -1  3 -3  1 -1  1 -1  1 -1  5 -5  1 -1  1 -1  0 +∞  1 -1  1 -1  1 -1 )
(  4 -3  1 -5 -1 -3 -1 -3 -1 -3  3 -7 -1 -3 -1 -3 -1 -3 +∞  2 -1 -3 -1 -3 )
(  6 -1  3 -3  1 -1  1 -1  1 -1  5 -5  1 -1  1 -1  1 -1  0 +∞  1 -1  1 -1 )
(  4 -3  1 -5 -1 -3 -1 -3 -1 -3  3 -7 -1 -3 -1 -3 -1 -3 -1 -3 +∞  2 -1 -3 )
(  6 -1  3 -3  1 -1  1 -1  1 -1  5 -5  1 -1  1 -1  1 -1  1 -1  0 +∞  1 -1 )
(  4 -3  1 -5 -1 -3 -1 -3 -1 -3  3 -7 -1 -3 -1 -3 -1 -3 -1 -3 -1 -3 +∞  2 )
(  6 -1  3 -3  1 -1  1 -1  1 -1  5 -5  1 -1  1 -1  1 -1  1 -1  1 -1  0 +∞ )

current DBM:
( +∞ 10  8  2  6  4  6  4  6  4 10  0  6  4  6  4  6  4  6  4  6  4  6  4 )
(  2 +∞  1 -5 -1 -3 -1 -3 -1 -3  3 -7 -1 -3 -1 -3 -1 -3 -1 -3 -1 -3 -1 -3 )
( -5  2 +∞  6 -3 -5 -3 -5 -3 -5  1 -9 -3 -5 -3 -5 -3 -5 -3 -5 -3 -5 -3 -5 )
(  1  8  4 +∞  3  1  3  1  3  1  7 -3  3  1  3  1  3  1  3  1  3  1  3  1 )
( -3  4  1 -5 +∞  2 -1 -3 -1 -3  3 -7 -1 -3 -1 -3 -1 -3 -1 -3 -1 -3 -1 -3 )
( -1  6  3 -3  0 +∞  1 -1  1 -1  5 -5  1 -1  1 -1  1 -1  1 -1  1 -1  1 -1 )
( -3  4  1 -5 -1 -3 +∞  2 -1 -3  3 -7 -1 -3 -1 -3 -1 -3 -1 -3 -1 -3 -1 -3 )
( -1  6  3 -3  1 -1  0 +∞  1 -1  5 -5  1 -1  1 -1  1 -1  1 -1  1 -1  1 -1 )
( -3  4  1 -5 -1 -3 -1 -3 +∞  2  3 -7 -1 -3 -1 -3 -1 -3 -1 -3 -1 -3 -1 -3 )
( -1  6  3 -3  1 -1  1 -1  0 +∞  5 -5  1 -1  1 -1  1 -1  1 -1  1 -1  1 -1 )
( -7  0 -3 -9 -5 -7 -5 -7 -5 -7 +∞ 10 -5 -7 -5 -7 -5 -7 -5 -7 -5 -7 -5 -7 )
(  3 10  7  1  5  3  5  3  5  3  8 +∞  5  3  5  3  5  3  5  3  5  3  5  3 )
( -3  4  1 -5 -1 -3 -1 -3 -1 -3  3 -7 +∞  2 -1 -3 -1 -3 -1 -3 -1 -3 -1 -3 )
( -1  6  3 -3  1 -1  1 -1  1 -1  5 -5  0 +∞  1 -1  1 -1  1 -1  1 -1  1 -1 )
( -3  4  1 -5 -1 -3 -1 -3 -1 -3  3 -7 -1 -3 +∞  2 -1 -3 -1 -3 -1 -3 -1 -3 )
( -1  6  3 -3  1 -1  1 -1  1 -1  5 -5  1 -1  0 +∞  1 -1  1 -1  1 -1  1 -1 )
( -3  4  1 -5 -1 -3 -1 -3 -1 -3  3 -7 -1 -3 -1 -3 +∞  2 -1 -3 -1 -3 -1 -3 )
( -1  6  3 -3  1 -1  1 -1  1 -1  5 -5  1 -1  1 -1  0 +∞  1 -1  1 -1  1 -1 )
( -3  4  1 -5 -1 -3 -1 -3 -1 -3  3 -7 -1 -3 -1 -3 -1 -3 +∞  2 -1 -3 -1 -3 )
( -1  6  3 -3  1 -1  1 -1  1 -1  5 -5  1 -1  1 -1  1 -1  0 +∞  1 -1  1 -1 )
( -3  4  1 -5 -1 -3 -1 -3 -1 -3  3 -7 -1 -3 -1 -3 -1 -3 -1 -3 +∞  2 -1 -3 )
( -1  6  3 -3  1 -1  1 -1  1 -1  5 -5  1 -1  1 -1  1 -1  1 -1  0 +∞  1 -1 )
( -3  4  1 -5 -1 -3 -1 -3 -1 -3  3 -7 -1 -3 -1 -3 -1 -3 -1 -3 -1 -3 +∞  2 )
( -1  6  3 -3  1 -1  1 -1  1 -1  5 -5  1 -1  1 -1  1 -1  1 -1  1 -1  0 +∞ )

widened DBM:
( +∞ +∞ +∞ +∞ +∞ +∞ +∞ +∞ +∞ +∞ +∞ +∞ +∞ +∞ +∞ +∞ +∞ +∞ +∞ +∞ +∞ +∞ +∞ +∞ )
( 10 +∞  8  2  6  4  6  4  6  4 10  0  6  4  6  4  6  4  6  4  6  4  6  4 )
(  2 +∞ +∞  6 -3 -5 -3 -5 -3 -5  1 -9 -3 -5 -3 -5 -3 -5 -3 -5 -3 -5 -3 -5 )
(  8 +∞  4 +∞  3  1  3  1  3  1  7 -3  3  1  3  1  3  1  3  1  3  1  3  1 )
(  4 +∞  1 -5 +∞  2 -1 -3 -1 -3  3 -7 -1 -3 -1 -3 -1 -3 -1 -3 -1 -3 -1 -3 )
(  6 +∞  3 -3  0 +∞  1 -1  1 -1  5 -5  1 -1  1 -1  1 -1  1 -1  1 -1  1 -1 )
(  4 +∞  1 -5 -1 -3 +∞  2 -1 -3  3 -7 -1 -3 -1 -3 -1 -3 -1 -3 -1 -3 -1 -3 )
(  6 +∞  3 -3  1 -1  0 +∞  1 -1  5 -5  1 -1  1 -1  1 -1  1 -1  1 -1  1 -1 )
(  4 +∞  1 -5 -1 -3 -1 -3 +∞  2  3 -7 -1 -3 -1 -3 -1 -3 -1 -3 -1 -3 -1 -3 )
(  6 +∞  3 -3  1 -1  1 -1  0 +∞  5 -5  1 -1  1 -1  1 -1  1 -1  1 -1  1 -1 )
(  0 +∞ -3 -9 -5 -7 -5 -7 -5 -7 +∞ 10 -5 -7 -5 -7 -5 -7 -5 -7 -5 -7 -5 -7 )
( 10 +∞  7  1  5  3  5  3  5  3  8 +∞  5  3  5  3  5  3  5  3  5  3  5  3 )
(  4 +∞  1 -5 -1 -3 -1 -3 -1 -3  3 -7 +∞  2 -1 -3 -1 -3 -1 -3 -1 -3 -1 -3 )
(  6 +∞  3 -3  1 -1  1 -1  1 -1  5 -5  0 +∞  1 -1  1 -1  1 -1  1 -1  1 -1 )
(  4 +∞  1 -5 -1 -3 -1 -3 -1 -3  3 -7 -1 -3 +∞  2 -1 -3 -1 -3 -1 -3 -1 -3 )
(  6 +∞  3 -3  1 -1  1 -1  1 -1  5 -5  1 -1  0 +∞  1 -1  1 -1  1 -1  1 -1 )
(  4 +∞  1 -5 -1 -3 -1 -3 -1 -3  3 -7 -1 -3 -1 -3 +∞  2 -1 -3 -1 -3 -1 -3 )
(  6 +∞  3 -3  1 -1  1 -1  1 -1  5 -5  1 -1  1 -1  0 +∞  1 -1  1 -1  1 -1 )
(  4 +∞  1 -5 -1 -3 -1 -3 -1 -3  3 -7 -1 -3 -1 -3 -1 -3 +∞  2 -1 -3 -1 -3 )
(  6 +∞  3 -3  1 -1  1 -1  1 -1  5 -5  1 -1  1 -1  1 -1  0 +∞  1 -1  1 -1 )
(  4 +∞  1 -5 -1 -3 -1 -3 -1 -3  3 -7 -1 -3 -1 -3 -1 -3 -1 -3 +∞  2 -1 -3 )
(  6 +∞  3 -3  1 -1  1 -1  1 -1  5 -5  1 -1  1 -1  1 -1  1 -1  0 +∞  1 -1 )
(  4 +∞  1 -5 -1 -3 -1 -3 -1 -3  3 -7 -1 -3 -1 -3 -1 -3 -1 -3 -1 -3 +∞  2 )
(  6 +∞  3 -3  1 -1  1 -1  1 -1  5 -5  1 -1  1 -1  1 -1  1 -1  1 -1  0 +∞ )

previous DBM:
( +∞  2  1 -5 -1 -3 -1 -3 -1 -3 -1 -3 -1 -3 -1 -3  3 -7 +∞ +∞ +∞ +∞ +∞ +∞ )
( 10 +∞  8  2  6  4  6  4  6  4  6  4  6  4  6  4 10  0 +∞ +∞ +∞ +∞ +∞ +∞ )
(  2 -5 +∞  6 -3 -5 -3 -5 -3 -5 -3 -5 -3 -5 -3 -5  1 -9 +∞ +∞ +∞ +∞ +∞ +∞ )
(  8  1  4 +∞  3  1  3  1  3  1  3  1  3  1  3  1  7 -3 +∞ +∞ +∞ +∞ +∞ +∞ )
(  4 -3  1 -5 +∞  2 -1 -3 -1 -3 -1 -3 -1 -3 -1 -3  3 -7 +∞ +∞ +∞ +∞ +∞ +∞ )
(  6 -1  3 -3  0 +∞  1 -1  1 -1  1 -1  1 -1  1 -1  5 -5 +∞ +∞ +∞ +∞ +∞ +∞ )
(  4 -3  1 -5 -1 -3 +∞  2 -1 -3 -1 -3 -1 -3 -1 -3  3 -7 +∞ +∞ +∞ +∞ +∞ +∞ )
(  6 -1  3 -3  1 -1  0 +∞  1 -1  1 -1  1 -1  1 -1  5 -5 +∞ +∞ +∞ +∞ +∞ +∞ )
(  4 -3  1 -5 -1 -3 -1 -3 +∞  2 -1 -3 -1 -3 -1 -3  3 -7 +∞ +∞ +∞ +∞ +∞ +∞ )
(  6 -1  3 -3  1 -1  1 -1  0 +∞  1 -1  1 -1  1 -1  5 -5 +∞ +∞ +∞ +∞ +∞ +∞ )
(  4 -3  1 -5 -1 -3 -1 -3 -1 -3 +∞  2 -1 -3 -1 -3  3 -7 +∞ +∞ +∞ +∞ +∞ +∞ )
(  6 -1  3 -3  1 -1  1 -1  1 -1  0 +∞  1 -1  1 -1  5 -5 +∞ +∞ +∞ +∞ +∞ +∞ )
(  4 -3  1 -5 -1 -3 -1 -3 -1 -3 -1 -3 +∞  2 -1 -3  3 -7 +∞ +∞ +∞ +∞ +∞ +∞ )
(  6 -1  3 -3  1 -1  1 -1  1 -1  1 -1  0 +∞  1 -1  5 -5 +∞ +∞ +∞ +∞ +∞ +∞ )
(  4 -3  1 -5 -1 -3 -1 -3 -1 -3 -1 -3 -1 -3 +∞  2  3 -7 +∞ +∞ +∞ +∞ +∞ +∞ )
(  6 -1  3 -3  1 -1  1 -1  1 -1  1 -1  1 -1  0 +∞  5 -5 +∞ +∞ +∞ +∞ +∞ +∞ )
(  0 -7 -3 -9 -5 -7 -5 -7 -5 -7 -5 -7 -5 -7 -5 -7 +∞ 10 +∞ +∞ +∞ +∞ +∞ +∞ )
( 10  3  7  1  5  3  5  3  5  3  5  3  5  3  5  3  8 +∞ +∞ +∞ +∞ +∞ +∞ +∞ )
( +∞ +∞ +∞ +∞ +∞ +∞ +∞ +∞ +∞ +∞ +∞ +∞ +∞ +∞ +∞ +∞ +∞ +∞ +∞ +∞ +∞ +∞ +∞ +∞ )
( +∞ +∞ +∞ +∞ +∞ +∞ +∞ +∞ +∞ +∞ +∞ +∞ +∞ +∞ +∞ +∞ +∞ +∞ +∞ +∞ +∞ +∞ +∞ +∞ )
( +∞ +∞ +∞ +∞ +∞ +∞ +∞ +∞ +∞ +∞ +∞ +∞ +∞ +∞ +∞ +∞ +∞ +∞ +∞ +∞ +∞ +∞ +∞ +∞ )
( +∞ +∞ +∞ +∞ +∞ +∞ +∞ +∞ +∞ +∞ +∞ +∞ +∞ +∞ +∞ +∞ +∞ +∞ +∞ +∞ +∞ +∞ +∞ +∞ )
( +∞ +∞ +∞ +∞ +∞ +∞ +∞ +∞ +∞ +∞ +∞ +∞ +∞ +∞ +∞ +∞ +∞ +∞ +∞ +∞ +∞ +∞ +∞ +∞ )
( +∞ +∞ +∞ +∞ +∞ +∞ +∞ +∞ +∞ +∞ +∞ +∞ +∞ +∞ +∞ +∞ +∞ +∞ +∞ +∞ +∞ +∞ +∞ +∞ )

current DBM:
( +∞ +∞ +∞ +∞ +∞ +∞ +∞ +∞ +∞ +∞ +∞ +∞ +∞ +∞ +∞ +∞ +∞ +∞ +∞ +∞ +∞ +∞ +∞ +∞ )
( 10 +∞  8  2  6  4  6  4  6  4 10  0  6  4  6  4  6  4  6  4  6  4  6  4 )
(  2 +∞ +∞  6 -3 -5 -3 -5 -3 -5  1 -9 -3 -5 -3 -5 -3 -5 -3 -5 -3 -5 -3 -5 )
(  8 +∞  4 +∞  3  1  3  1  3  1  7 -3  3  1  3  1  3  1  3  1  3  1  3  1 )
(  4 +∞  1 -5 +∞  2 -1 -3 -1 -3  3 -7 -1 -3 -1 -3 -1 -3 -1 -3 -1 -3 -1 -3 )
(  6 +∞  3 -3  0 +∞  1 -1  1 -1  5 -5  1 -1  1 -1  1 -1  1 -1  1 -1  1 -1 )
(  4 +∞  1 -5 -1 -3 +∞  2 -1 -3  3 -7 -1 -3 -1 -3 -1 -3 -1 -3 -1 -3 -1 -3 )
(  6 +∞  3 -3  1 -1  0 +∞  1 -1  5 -5  1 -1  1 -1  1 -1  1 -1  1 -1  1 -1 )
(  4 +∞  1 -5 -1 -3 -1 -3 +∞  2  3 -7 -1 -3 -1 -3 -1 -3 -1 -3 -1 -3 -1 -3 )
(  6 +∞  3 -3  1 -1  1 -1  0 +∞  5 -5  1 -1  1 -1  1 -1  1 -1  1 -1  1 -1 )
(  0 +∞ -3 -9 -5 -7 -5 -7 -5 -7 +∞ 10 -5 -7 -5 -7 -5 -7 -5 -7 -5 -7 -5 -7 )
( 10 +∞  7  1  5  3  5  3  5  3  8 +∞  5  3  5  3  5  3  5  3  5  3  5  3 )
(  4 +∞  1 -5 -1 -3 -1 -3 -1 -3  3 -7 +∞  2 -1 -3 -1 -3 -1 -3 -1 -3 -1 -3 )
(  6 +∞  3 -3  1 -1  1 -1  1 -1  5 -5  0 +∞  1 -1  1 -1  1 -1  1 -1  1 -1 )
(  4 +∞  1 -5 -1 -3 -1 -3 -1 -3  3 -7 -1 -3 +∞  2 -1 -3 -1 -3 -1 -3 -1 -3 )
(  6 +∞  3 -3  1 -1  1 -1  1 -1  5 -5  1 -1  0 +∞  1 -1  1 -1  1 -1  1 -1 )
(  4 +∞  1 -5 -1 -3 -1 -3 -1 -3  3 -7 -1 -3 -1 -3 +∞  2 -1 -3 -1 -3 -1 -3 )
(  6 +∞  3 -3  1 -1  1 -1  1 -1  5 -5  1 -1  1 -1  0 +∞  1 -1  1 -1  1 -1 )
(  4 +∞  1 -5 -1 -3 -1 -3 -1 -3  3 -7 -1 -3 -1 -3 -1 -3 +∞  2 -1 -3 -1 -3 )
(  6 +∞  3 -3  1 -1  1 -1  1 -1  5 -5  1 -1  1 -1  1 -1  0 +∞  1 -1  1 -1 )
(  4 +∞  1 -5 -1 -3 -1 -3 -1 -3  3 -7 -1 -3 -1 -3 -1 -3 -1 -3 +∞  2 -1 -3 )
(  6 +∞  3 -3  1 -1  1 -1  1 -1  5 -5  1 -1  1 -1  1 -1  1 -1  0 +∞  1 -1 )
(  4 +∞  1 -5 -1 -3 -1 -3 -1 -3  3 -7 -1 -3 -1 -3 -1 -3 -1 -3 -1 -3 +∞  2 )
(  6 +∞  3 -3  1 -1  1 -1  1 -1  5 -5  1 -1  1 -1  1 -1  1 -1  1 -1  0 +∞ )

widened DBM:
( +∞ +∞ +∞ +∞ +∞ +∞ +∞ +∞ +∞ +∞ +∞ +∞ +∞ +∞ +∞ +∞ +∞ +∞ +∞ +∞ +∞ +∞ +∞ +∞ )
( 10 +∞  8  2  6  4  6  4  6  4 +∞  4  6  4  6  4 10 +∞ +∞ +∞ +∞ +∞ +∞ +∞ )
(  2 +∞ +∞  6 -3 -5 -3 -5 -3 -5 +∞ -5 -3 -5 -3 -5  1 +∞ +∞ +∞ +∞ +∞ +∞ +∞ )
(  8 +∞  4 +∞  3  1  3  1  3  1 +∞  1  3  1  3  1  7 +∞ +∞ +∞ +∞ +∞ +∞ +∞ )
(  4 +∞  1 -5 +∞  2 -1 -3 -1 -3 +∞ -3 -1 -3 -1 -3  3 +∞ +∞ +∞ +∞ +∞ +∞ +∞ )
(  6 +∞  3 -3  0 +∞  1 -1  1 -1 +∞ -1  1 -1  1 -1  5 +∞ +∞ +∞ +∞ +∞ +∞ +∞ )
(  4 +∞  1 -5 -1 -3 +∞  2 -1 -3 +∞ -3 -1 -3 -1 -3  3 +∞ +∞ +∞ +∞ +∞ +∞ +∞ )
(  6 +∞  3 -3  1 -1  0 +∞  1 -1 +∞ -1  1 -1  1 -1  5 +∞ +∞ +∞ +∞ +∞ +∞ +∞ )
(  4 +∞  1 -5 -1 -3 -1 -3 +∞  2 +∞ -3 -1 -3 -1 -3  3 +∞ +∞ +∞ +∞ +∞ +∞ +∞ )
(  6 +∞  3 -3  1 -1  1 -1  0 +∞ +∞ -1  1 -1  1 -1  5 +∞ +∞ +∞ +∞ +∞ +∞ +∞ )
(  4 +∞  1 -5 -1 -3 -1 -3 -1 -3 +∞ +∞ -1 -3 -1 -3  3 -7 +∞ +∞ +∞ +∞ +∞ +∞ )
( +∞ +∞ +∞ +∞ +∞ +∞ +∞ +∞ +∞ +∞ +∞ +∞ +∞ +∞ +∞ +∞  5 +∞ +∞ +∞ +∞ +∞ +∞ +∞ )
(  4 +∞  1 -5 -1 -3 -1 -3 -1 -3 +∞ -3 +∞  2 -1 -3  3 +∞ +∞ +∞ +∞ +∞ +∞ +∞ )
(  6 +∞  3 -3  1 -1  1 -1  1 -1 +∞ -1  0 +∞  1 -1  5 +∞ +∞ +∞ +∞ +∞ +∞ +∞ )
(  4 +∞  1 -5 -1 -3 -1 -3 -1 -3 +∞ -3 -1 -3 +∞  2  3 +∞ +∞ +∞ +∞ +∞ +∞ +∞ )
(  6 +∞  3 -3  1 -1  1 -1  1 -1 +∞ -1  1 -1  0 +∞  5 +∞ +∞ +∞ +∞ +∞ +∞ +∞ )
( +∞ +∞ +∞ +∞ +∞ +∞ +∞ +∞ +∞ +∞ +∞ -7 +∞ +∞ +∞ +∞ +∞ 10 +∞ +∞ +∞ +∞ +∞ +∞ )
( 10 +∞  7  1  5  3  5  3  5  3  5  3  5  3  5  3  8 +∞ +∞ +∞ +∞ +∞ +∞ +∞ )
( +∞ +∞ +∞ +∞ +∞ +∞ +∞ +∞ +∞ +∞ +∞ +∞ +∞ +∞ +∞ +∞ +∞ +∞ +∞ +∞ +∞ +∞ +∞ +∞ )
( +∞ +∞ +∞ +∞ +∞ +∞ +∞ +∞ +∞ +∞ +∞ +∞ +∞ +∞ +∞ +∞ +∞ +∞ +∞ +∞ +∞ +∞ +∞ +∞ )
( +∞ +∞ +∞ +∞ +∞ +∞ +∞ +∞ +∞ +∞ +∞ +∞ +∞ +∞ +∞ +∞ +∞ +∞ +∞ +∞ +∞ +∞ +∞ +∞ )
( +∞ +∞ +∞ +∞ +∞ +∞ +∞ +∞ +∞ +∞ +∞ +∞ +∞ +∞ +∞ +∞ +∞ +∞ +∞ +∞ +∞ +∞ +∞ +∞ )
( +∞ +∞ +∞ +∞ +∞ +∞ +∞ +∞ +∞ +∞ +∞ +∞ +∞ +∞ +∞ +∞ +∞ +∞ +∞ +∞ +∞ +∞ +∞ +∞ )
( +∞ +∞ +∞ +∞ +∞ +∞ +∞ +∞ +∞ +∞ +∞ +∞ +∞ +∞ +∞ +∞ +∞ +∞ +∞ +∞ +∞ +∞ +∞ +∞ )

widened the last 2 partitions
widening CSC with this conjunction:
 X_int_0[8] - -X_int_0[8] <= 10 && X_int_0[0] - -X_int_0[8] <= 8 && -X_int_0[0] - -X_int_0[8] <= 2 && X_int_0[1] - -X_int_0[8] <= 6 && -X_int_0[1] - -X_int_0[8] <= 4 && X_int_0[2] - -X_int_0[8] <= 6 && -X_int_0[2] - -X_int_0[8] <= 4 && X_int_0[3] - -X_int_0[8] <= 6 && -X_int_0[3] - -X_int_0[8] <= 4 && -X_int_0[4] - -X_int_0[8] <= 4 && X_int_0[5] - -X_int_0[8] <= 6 && -X_int_0[5] - -X_int_0[8] <= 4 && X_int_0[6] - -X_int_0[8] <= 6 && -X_int_0[6] - -X_int_0[8] <= 4 && X_int_0[7] - -X_int_0[8] <= 10 && X_int_0[8] - X_int_0[0] <= 2 && -X_int_0[0] - X_int_0[0] <= 6 && X_int_0[1] - X_int_0[0] <= -3 && -X_int_0[1] - X_int_0[0] <= -5 && X_int_0[2] - X_int_0[0] <= -3 && -X_int_0[2] - X_int_0[0] <= -5 && X_int_0[3] - X_int_0[0] <= -3 && -X_int_0[3] - X_int_0[0] <= -5 && -X_int_0[4] - X_int_0[0] <= -5 && X_int_0[5] - X_int_0[0] <= -3 && -X_int_0[5] - X_int_0[0] <= -5 && X_int_0[6] - X_int_0[0] <= -3 && -X_int_0[6] - X_int_0[0] <= -5 && X_int_0[7] - X_int_0[0] <= 1 && X_int_0[8] - -X_int_0[0] <= 8 && X_int_0[0] - -X_int_0[0] <= 4 && X_int_0[1] - -X_int_0[0] <= 3 && -X_int_0[1] - -X_int_0[0] <= 1 && X_int_0[2] - -X_int_0[0] <= 3 && -X_int_0[2] - -X_int_0[0] <= 1 && X_int_0[3] - -X_int_0[0] <= 3 && -X_int_0[3] - -X_int_0[0] <= 1 && -X_int_0[4] - -X_int_0[0] <= 1 && X_int_0[5] - -X_int_0[0] <= 3 && -X_int_0[5] - -X_int_0[0] <= 1 && X_int_0[6] - -X_int_0[0] <= 3 && -X_int_0[6] - -X_int_0[0] <= 1 && X_int_0[7] - -X_int_0[0] <= 7 && X_int_0[8] - X_int_0[1] <= 4 && X_int_0[0] - X_int_0[1] <= 1 && -X_int_0[0] - X_int_0[1] <= -5 && -X_int_0[1] - X_int_0[1] <= 2 && X_int_0[2] - X_int_0[1] <= -1 && -X_int_0[2] - X_int_0[1] <= -3 && X_int_0[3] - X_int_0[1] <= -1 && -X_int_0[3] - X_int_0[1] <= -3 && -X_int_0[4] - X_int_0[1] <= -3 && X_int_0[5] - X_int_0[1] <= -1 && -X_int_0[5] - X_int_0[1] <= -3 && X_int_0[6] - X_int_0[1] <= -1 && -X_int_0[6] - X_int_0[1] <= -3 && X_int_0[7] - X_int_0[1] <= 3 && X_int_0[8] - -X_int_0[1] <= 6 && X_int_0[0] - -X_int_0[1] <= 3 && -X_int_0[0] - -X_int_0[1] <= -3 && X_int_0[1] - -X_int_0[1] <= 0 && X_int_0[2] - -X_int_0[1] <= 1 && -X_int_0[2] - -X_int_0[1] <= -1 && X_int_0[3] - -X_int_0[1] <= 1 && -X_int_0[3] - -X_int_0[1] <= -1 && -X_int_0[4] - -X_int_0[1] <= -1 && X_int_0[5] - -X_int_0[1] <= 1 && -X_int_0[5] - -X_int_0[1] <= -1 && X_int_0[6] - -X_int_0[1] <= 1 && -X_int_0[6] - -X_int_0[1] <= -1 && X_int_0[7] - -X_int_0[1] <= 5 && X_int_0[8] - X_int_0[2] <= 4 && X_int_0[0] - X_int_0[2] <= 1 && -X_int_0[0] - X_int_0[2] <= -5 && X_int_0[1] - X_int_0[2] <= -1 && -X_int_0[1] - X_int_0[2] <= -3 && -X_int_0[2] - X_int_0[2] <= 2 && X_int_0[3] - X_int_0[2] <= -1 && -X_int_0[3] - X_int_0[2] <= -3 && -X_int_0[4] - X_int_0[2] <= -3 && X_int_0[5] - X_int_0[2] <= -1 && -X_int_0[5] - X_int_0[2] <= -3 && X_int_0[6] - X_int_0[2] <= -1 && -X_int_0[6] - X_int_0[2] <= -3 && X_int_0[7] - X_int_0[2] <= 3 && X_int_0[8] - -X_int_0[2] <= 6 && X_int_0[0] - -X_int_0[2] <= 3 && -X_int_0[0] - -X_int_0[2] <= -3 && X_int_0[1] - -X_int_0[2] <= 1 && -X_int_0[1] - -X_int_0[2] <= -1 && X_int_0[2] - -X_int_0[2] <= 0 && X_int_0[3] - -X_int_0[2] <= 1 && -X_int_0[3] - -X_int_0[2] <= -1 && -X_int_0[4] - -X_int_0[2] <= -1 && X_int_0[5] - -X_int_0[2] <= 1 && -X_int_0[5] - -X_int_0[2] <= -1 && X_int_0[6] - -X_int_0[2] <= 1 && -X_int_0[6] - -X_int_0[2] <= -1 && X_int_0[7] - -X_int_0[2] <= 5 && X_int_0[8] - X_int_0[3] <= 4 && X_int_0[0] - X_int_0[3] <= 1 && -X_int_0[0] - X_int_0[3] <= -5 && X_int_0[1] - X_int_0[3] <= -1 && -X_int_0[1] - X_int_0[3] <= -3 && X_int_0[2] - X_int_0[3] <= -1 && -X_int_0[2] - X_int_0[3] <= -3 && -X_int_0[3] - X_int_0[3] <= 2 && -X_int_0[4] - X_int_0[3] <= -3 && X_int_0[5] - X_int_0[3] <= -1 && -X_int_0[5] - X_int_0[3] <= -3 && X_int_0[6] - X_int_0[3] <= -1 && -X_int_0[6] - X_int_0[3] <= -3 && X_int_0[7] - X_int_0[3] <= 3 && X_int_0[8] - -X_int_0[3] <= 6 && X_int_0[0] - -X_int_0[3] <= 3 && -X_int_0[0] - -X_int_0[3] <= -3 && X_int_0[1] - -X_int_0[3] <= 1 && -X_int_0[1] - -X_int_0[3] <= -1 && X_int_0[2] - -X_int_0[3] <= 1 && -X_int_0[2] - -X_int_0[3] <= -1 && X_int_0[3] - -X_int_0[3] <= 0 && -X_int_0[4] - -X_int_0[3] <= -1 && X_int_0[5] - -X_int_0[3] <= 1 && -X_int_0[5] - -X_int_0[3] <= -1 && X_int_0[6] - -X_int_0[3] <= 1 && -X_int_0[6] - -X_int_0[3] <= -1 && X_int_0[7] - -X_int_0[3] <= 5 && X_int_0[8] - X_int_0[4] <= 4 && X_int_0[0] - X_int_0[4] <= 1 && -X_int_0[0] - X_int_0[4] <= -5 && X_int_0[1] - X_int_0[4] <= -1 && -X_int_0[1] - X_int_0[4] <= -3 && X_int_0[2] - X_int_0[4] <= -1 && -X_int_0[2] - X_int_0[4] <= -3 && X_int_0[3] - X_int_0[4] <= -1 && -X_int_0[3] - X_int_0[4] <= -3 && X_int_0[5] - X_int_0[4] <= -1 && -X_int_0[5] - X_int_0[4] <= -3 && X_int_0[6] - X_int_0[4] <= -1 && -X_int_0[6] - X_int_0[4] <= -3 && X_int_0[7] - X_int_0[4] <= 3 && -X_int_0[7] - X_int_0[4] <= -7 && X_int_0[7] - -X_int_0[4] <= 5 && X_int_0[8] - X_int_0[5] <= 4 && X_int_0[0] - X_int_0[5] <= 1 && -X_int_0[0] - X_int_0[5] <= -5 && X_int_0[1] - X_int_0[5] <= -1 && -X_int_0[1] - X_int_0[5] <= -3 && X_int_0[2] - X_int_0[5] <= -1 && -X_int_0[2] - X_int_0[5] <= -3 && X_int_0[3] - X_int_0[5] <= -1 && -X_int_0[3] - X_int_0[5] <= -3 && -X_int_0[4] - X_int_0[5] <= -3 && -X_int_0[5] - X_int_0[5] <= 2 && X_int_0[6] - X_int_0[5] <= -1 && -X_int_0[6] - X_int_0[5] <= -3 && X_int_0[7] - X_int_0[5] <= 3 && X_int_0[8] - -X_int_0[5] <= 6 && X_int_0[0] - -X_int_0[5] <= 3 && -X_int_0[0] - -X_int_0[5] <= -3 && X_int_0[1] - -X_int_0[5] <= 1 && -X_int_0[1] - -X_int_0[5] <= -1 && X_int_0[2] - -X_int_0[5] <= 1 && -X_int_0[2] - -X_int_0[5] <= -1 && X_int_0[3] - -X_int_0[5] <= 1 && -X_int_0[3] - -X_int_0[5] <= -1 && -X_int_0[4] - -X_int_0[5] <= -1 && X_int_0[5] - -X_int_0[5] <= 0 && X_int_0[6] - -X_int_0[5] <= 1 && -X_int_0[6] - -X_int_0[5] <= -1 && X_int_0[7] - -X_int_0[5] <= 5 && X_int_0[8] - X_int_0[6] <= 4 && X_int_0[0] - X_int_0[6] <= 1 && -X_int_0[0] - X_int_0[6] <= -5 && X_int_0[1] - X_int_0[6] <= -1 && -X_int_0[1] - X_int_0[6] <= -3 && X_int_0[2] - X_int_0[6] <= -1 && -X_int_0[2] - X_int_0[6] <= -3 && X_int_0[3] - X_int_0[6] <= -1 && -X_int_0[3] - X_int_0[6] <= -3 && -X_int_0[4] - X_int_0[6] <= -3 && X_int_0[5] - X_int_0[6] <= -1 && -X_int_0[5] - X_int_0[6] <= -3 && -X_int_0[6] - X_int_0[6] <= 2 && X_int_0[7] - X_int_0[6] <= 3 && X_int_0[8] - -X_int_0[6] <= 6 && X_int_0[0] - -X_int_0[6] <= 3 && -X_int_0[0] - -X_int_0[6] <= -3 && X_int_0[1] - -X_int_0[6] <= 1 && -X_int_0[1] - -X_int_0[6] <= -1 && X_int_0[2] - -X_int_0[6] <= 1 && -X_int_0[2] - -X_int_0[6] <= -1 && X_int_0[3] - -X_int_0[6] <= 1 && -X_int_0[3] - -X_int_0[6] <= -1 && -X_int_0[4] - -X_int_0[6] <= -1 && X_int_0[5] - -X_int_0[6] <= 1 && -X_int_0[5] - -X_int_0[6] <= -1 && X_int_0[6] - -X_int_0[6] <= 0 && X_int_0[7] - -X_int_0[6] <= 5 && -X_int_0[4] - X_int_0[7] <= -7 && -X_int_0[7] - X_int_0[7] <= 10 && X_int_0[8] - -X_int_0[7] <= 10 && X_int_0[0] - -X_int_0[7] <= 7 && -X_int_0[0] - -X_int_0[7] <= 1 && X_int_0[1] - -X_int_0[7] <= 5 && -X_int_0[1] - -X_int_0[7] <= 3 && X_int_0[2] - -X_int_0[7] <= 5 && -X_int_0[2] - -X_int_0[7] <= 3 && X_int_0[3] - -X_int_0[7] <= 5 && -X_int_0[3] - -X_int_0[7] <= 3 && X_int_0[4] - -X_int_0[7] <= 5 && -X_int_0[4] - -X_int_0[7] <= 3 && X_int_0[5] - -X_int_0[7] <= 5 && -X_int_0[5] - -X_int_0[7] <= 3 && X_int_0[6] - -X_int_0[7] <= 5 && -X_int_0[6] - -X_int_0[7] <= 3 && X_int_0[7] - -X_int_0[7] <= 8
instrumentation took 0.0432s

---------------------------------------------------
iteration 5
---------------------------------------------------

no new reachability evidence found after 835.0806s:
 -> generalizing

trying to block singletons of:
 X_int_0[8] - -X_int_0[8] <= 10 && X_int_0[0] - -X_int_0[8] <= 8 && -X_int_0[0] - -X_int_0[8] <= 2 && X_int_0[1] - -X_int_0[8] <= 6 && -X_int_0[1] - -X_int_0[8] <= 4 && X_int_0[2] - -X_int_0[8] <= 6 && -X_int_0[2] - -X_int_0[8] <= 4 && X_int_0[3] - -X_int_0[8] <= 6 && -X_int_0[3] - -X_int_0[8] <= 4 && -X_int_0[4] - -X_int_0[8] <= 4 && X_int_0[5] - -X_int_0[8] <= 6 && -X_int_0[5] - -X_int_0[8] <= 4 && X_int_0[6] - -X_int_0[8] <= 6 && -X_int_0[6] - -X_int_0[8] <= 4 && X_int_0[7] - -X_int_0[8] <= 10 && X_int_0[8] - X_int_0[0] <= 2 && -X_int_0[0] - X_int_0[0] <= 6 && X_int_0[1] - X_int_0[0] <= -3 && -X_int_0[1] - X_int_0[0] <= -5 && X_int_0[2] - X_int_0[0] <= -3 && -X_int_0[2] - X_int_0[0] <= -5 && X_int_0[3] - X_int_0[0] <= -3 && -X_int_0[3] - X_int_0[0] <= -5 && -X_int_0[4] - X_int_0[0] <= -5 && X_int_0[5] - X_int_0[0] <= -3 && -X_int_0[5] - X_int_0[0] <= -5 && X_int_0[6] - X_int_0[0] <= -3 && -X_int_0[6] - X_int_0[0] <= -5 && X_int_0[7] - X_int_0[0] <= 1 && X_int_0[8] - -X_int_0[0] <= 8 && X_int_0[0] - -X_int_0[0] <= 4 && X_int_0[1] - -X_int_0[0] <= 3 && -X_int_0[1] - -X_int_0[0] <= 1 && X_int_0[2] - -X_int_0[0] <= 3 && -X_int_0[2] - -X_int_0[0] <= 1 && X_int_0[3] - -X_int_0[0] <= 3 && -X_int_0[3] - -X_int_0[0] <= 1 && -X_int_0[4] - -X_int_0[0] <= 1 && X_int_0[5] - -X_int_0[0] <= 3 && -X_int_0[5] - -X_int_0[0] <= 1 && X_int_0[6] - -X_int_0[0] <= 3 && -X_int_0[6] - -X_int_0[0] <= 1 && X_int_0[7] - -X_int_0[0] <= 7 && X_int_0[8] - X_int_0[1] <= 4 && X_int_0[0] - X_int_0[1] <= 1 && -X_int_0[0] - X_int_0[1] <= -5 && -X_int_0[1] - X_int_0[1] <= 2 && X_int_0[2] - X_int_0[1] <= -1 && -X_int_0[2] - X_int_0[1] <= -3 && X_int_0[3] - X_int_0[1] <= -1 && -X_int_0[3] - X_int_0[1] <= -3 && -X_int_0[4] - X_int_0[1] <= -3 && X_int_0[5] - X_int_0[1] <= -1 && -X_int_0[5] - X_int_0[1] <= -3 && X_int_0[6] - X_int_0[1] <= -1 && -X_int_0[6] - X_int_0[1] <= -3 && X_int_0[7] - X_int_0[1] <= 3 && X_int_0[8] - -X_int_0[1] <= 6 && X_int_0[0] - -X_int_0[1] <= 3 && -X_int_0[0] - -X_int_0[1] <= -3 && X_int_0[1] - -X_int_0[1] <= 0 && X_int_0[2] - -X_int_0[1] <= 1 && -X_int_0[2] - -X_int_0[1] <= -1 && X_int_0[3] - -X_int_0[1] <= 1 && -X_int_0[3] - -X_int_0[1] <= -1 && -X_int_0[4] - -X_int_0[1] <= -1 && X_int_0[5] - -X_int_0[1] <= 1 && -X_int_0[5] - -X_int_0[1] <= -1 && X_int_0[6] - -X_int_0[1] <= 1 && -X_int_0[6] - -X_int_0[1] <= -1 && X_int_0[7] - -X_int_0[1] <= 5 && X_int_0[8] - X_int_0[2] <= 4 && X_int_0[0] - X_int_0[2] <= 1 && -X_int_0[0] - X_int_0[2] <= -5 && X_int_0[1] - X_int_0[2] <= -1 && -X_int_0[1] - X_int_0[2] <= -3 && -X_int_0[2] - X_int_0[2] <= 2 && X_int_0[3] - X_int_0[2] <= -1 && -X_int_0[3] - X_int_0[2] <= -3 && -X_int_0[4] - X_int_0[2] <= -3 && X_int_0[5] - X_int_0[2] <= -1 && -X_int_0[5] - X_int_0[2] <= -3 && X_int_0[6] - X_int_0[2] <= -1 && -X_int_0[6] - X_int_0[2] <= -3 && X_int_0[7] - X_int_0[2] <= 3 && X_int_0[8] - -X_int_0[2] <= 6 && X_int_0[0] - -X_int_0[2] <= 3 && -X_int_0[0] - -X_int_0[2] <= -3 && X_int_0[1] - -X_int_0[2] <= 1 && -X_int_0[1] - -X_int_0[2] <= -1 && X_int_0[2] - -X_int_0[2] <= 0 && X_int_0[3] - -X_int_0[2] <= 1 && -X_int_0[3] - -X_int_0[2] <= -1 && -X_int_0[4] - -X_int_0[2] <= -1 && X_int_0[5] - -X_int_0[2] <= 1 && -X_int_0[5] - -X_int_0[2] <= -1 && X_int_0[6] - -X_int_0[2] <= 1 && -X_int_0[6] - -X_int_0[2] <= -1 && X_int_0[7] - -X_int_0[2] <= 5 && X_int_0[8] - X_int_0[3] <= 4 && X_int_0[0] - X_int_0[3] <= 1 && -X_int_0[0] - X_int_0[3] <= -5 && X_int_0[1] - X_int_0[3] <= -1 && -X_int_0[1] - X_int_0[3] <= -3 && X_int_0[2] - X_int_0[3] <= -1 && -X_int_0[2] - X_int_0[3] <= -3 && -X_int_0[3] - X_int_0[3] <= 2 && -X_int_0[4] - X_int_0[3] <= -3 && X_int_0[5] - X_int_0[3] <= -1 && -X_int_0[5] - X_int_0[3] <= -3 && X_int_0[6] - X_int_0[3] <= -1 && -X_int_0[6] - X_int_0[3] <= -3 && X_int_0[7] - X_int_0[3] <= 3 && X_int_0[8] - -X_int_0[3] <= 6 && X_int_0[0] - -X_int_0[3] <= 3 && -X_int_0[0] - -X_int_0[3] <= -3 && X_int_0[1] - -X_int_0[3] <= 1 && -X_int_0[1] - -X_int_0[3] <= -1 && X_int_0[2] - -X_int_0[3] <= 1 && -X_int_0[2] - -X_int_0[3] <= -1 && X_int_0[3] - -X_int_0[3] <= 0 && -X_int_0[4] - -X_int_0[3] <= -1 && X_int_0[5] - -X_int_0[3] <= 1 && -X_int_0[5] - -X_int_0[3] <= -1 && X_int_0[6] - -X_int_0[3] <= 1 && -X_int_0[6] - -X_int_0[3] <= -1 && X_int_0[7] - -X_int_0[3] <= 5 && X_int_0[8] - X_int_0[4] <= 4 && X_int_0[0] - X_int_0[4] <= 1 && -X_int_0[0] - X_int_0[4] <= -5 && X_int_0[1] - X_int_0[4] <= -1 && -X_int_0[1] - X_int_0[4] <= -3 && X_int_0[2] - X_int_0[4] <= -1 && -X_int_0[2] - X_int_0[4] <= -3 && X_int_0[3] - X_int_0[4] <= -1 && -X_int_0[3] - X_int_0[4] <= -3 && X_int_0[5] - X_int_0[4] <= -1 && -X_int_0[5] - X_int_0[4] <= -3 && X_int_0[6] - X_int_0[4] <= -1 && -X_int_0[6] - X_int_0[4] <= -3 && X_int_0[7] - X_int_0[4] <= 3 && -X_int_0[7] - X_int_0[4] <= -7 && X_int_0[7] - -X_int_0[4] <= 5 && X_int_0[8] - X_int_0[5] <= 4 && X_int_0[0] - X_int_0[5] <= 1 && -X_int_0[0] - X_int_0[5] <= -5 && X_int_0[1] - X_int_0[5] <= -1 && -X_int_0[1] - X_int_0[5] <= -3 && X_int_0[2] - X_int_0[5] <= -1 && -X_int_0[2] - X_int_0[5] <= -3 && X_int_0[3] - X_int_0[5] <= -1 && -X_int_0[3] - X_int_0[5] <= -3 && -X_int_0[4] - X_int_0[5] <= -3 && -X_int_0[5] - X_int_0[5] <= 2 && X_int_0[6] - X_int_0[5] <= -1 && -X_int_0[6] - X_int_0[5] <= -3 && X_int_0[7] - X_int_0[5] <= 3 && X_int_0[8] - -X_int_0[5] <= 6 && X_int_0[0] - -X_int_0[5] <= 3 && -X_int_0[0] - -X_int_0[5] <= -3 && X_int_0[1] - -X_int_0[5] <= 1 && -X_int_0[1] - -X_int_0[5] <= -1 && X_int_0[2] - -X_int_0[5] <= 1 && -X_int_0[2] - -X_int_0[5] <= -1 && X_int_0[3] - -X_int_0[5] <= 1 && -X_int_0[3] - -X_int_0[5] <= -1 && -X_int_0[4] - -X_int_0[5] <= -1 && X_int_0[5] - -X_int_0[5] <= 0 && X_int_0[6] - -X_int_0[5] <= 1 && -X_int_0[6] - -X_int_0[5] <= -1 && X_int_0[7] - -X_int_0[5] <= 5 && X_int_0[8] - X_int_0[6] <= 4 && X_int_0[0] - X_int_0[6] <= 1 && -X_int_0[0] - X_int_0[6] <= -5 && X_int_0[1] - X_int_0[6] <= -1 && -X_int_0[1] - X_int_0[6] <= -3 && X_int_0[2] - X_int_0[6] <= -1 && -X_int_0[2] - X_int_0[6] <= -3 && X_int_0[3] - X_int_0[6] <= -1 && -X_int_0[3] - X_int_0[6] <= -3 && -X_int_0[4] - X_int_0[6] <= -3 && X_int_0[5] - X_int_0[6] <= -1 && -X_int_0[5] - X_int_0[6] <= -3 && -X_int_0[6] - X_int_0[6] <= 2 && X_int_0[7] - X_int_0[6] <= 3 && X_int_0[8] - -X_int_0[6] <= 6 && X_int_0[0] - -X_int_0[6] <= 3 && -X_int_0[0] - -X_int_0[6] <= -3 && X_int_0[1] - -X_int_0[6] <= 1 && -X_int_0[1] - -X_int_0[6] <= -1 && X_int_0[2] - -X_int_0[6] <= 1 && -X_int_0[2] - -X_int_0[6] <= -1 && X_int_0[3] - -X_int_0[6] <= 1 && -X_int_0[3] - -X_int_0[6] <= -1 && -X_int_0[4] - -X_int_0[6] <= -1 && X_int_0[5] - -X_int_0[6] <= 1 && -X_int_0[5] - -X_int_0[6] <= -1 && X_int_0[6] - -X_int_0[6] <= 0 && X_int_0[7] - -X_int_0[6] <= 5 && -X_int_0[4] - X_int_0[7] <= -7 && -X_int_0[7] - X_int_0[7] <= 10 && X_int_0[8] - -X_int_0[7] <= 10 && X_int_0[0] - -X_int_0[7] <= 7 && -X_int_0[0] - -X_int_0[7] <= 1 && X_int_0[1] - -X_int_0[7] <= 5 && -X_int_0[1] - -X_int_0[7] <= 3 && X_int_0[2] - -X_int_0[7] <= 5 && -X_int_0[2] - -X_int_0[7] <= 3 && X_int_0[3] - -X_int_0[7] <= 5 && -X_int_0[3] - -X_int_0[7] <= 3 && X_int_0[4] - -X_int_0[7] <= 5 && -X_int_0[4] - -X_int_0[7] <= 3 && X_int_0[5] - -X_int_0[7] <= 5 && -X_int_0[5] - -X_int_0[7] <= 3 && X_int_0[6] - -X_int_0[7] <= 5 && -X_int_0[6] - -X_int_0[7] <= 3 && X_int_0[7] - -X_int_0[7] <= 8

running blocking in chunks of 6 until new evidence is found

on conjunction:
 X_int_0[8] - X_int_0[6] <= 4
 (tentative CSC widening took 1.4273s)
 VeriAbs proved unreachability after 172.8169s

on conjunction:
 X_int_0[8] - X_int_0[5] <= 4
 (tentative CSC widening took 1.1808s)
 VeriAbs proved unreachability after 169.4344s

on conjunction:
 X_int_0[8] - X_int_0[4] <= 4
 (tentative CSC widening took 1.0505s)
 VeriAbs proved unreachability after 164.6470s

on conjunction:
 X_int_0[8] - X_int_0[3] <= 4
 (tentative CSC widening took 1.6155s)
 VeriAbs proved unreachability after 170.7389s

on conjunction:
 X_int_0[8] - X_int_0[2] <= 4
 (tentative CSC widening took 1.0505s)
 VeriAbs proved unreachability after 164.5915s

on conjunction:
 X_int_0[8] - X_int_0[1] <= 4
 (tentative CSC widening took 1.0504s)
 VeriAbs proved unreachability after 164.2386s

running blocking in chunks of 6 until new evidence is found

