***********************************************************
launching ALPACA on Problem03_label37_false-unreach-call.c
***********************************************************

constructing the AST took 2.5383s
initial instrumentation took 0.5063s

---------------------------------------------------
iteration 1
---------------------------------------------------

CPA_Seq found legitimate reachability after 10.7773s:
 0 == X_int_0[4] - 6 || 0 == X_int_0[4] - 5 || 0 == X_int_0[4] - 4 || 0 == X_int_0[4] - 3 || 0 == X_int_0[4] - 2 || 0 == X_int_0[4] - 1 && 0 == X_int_0[0] - 5 && 0 == X_int_0[1] - 3 && 0 == X_int_0[2] - 5 && 0 == X_int_0[3] - 1
 (parsing witness took 44.7585s)
 (directed symex took 35.8310s)

VeriAbs found legitimate reachability after 84.5572s:
 0 == X_int_0[4] - 6 || 0 == X_int_0[4] - 5 || 0 == X_int_0[4] - 4 || 0 == X_int_0[4] - 3 || 0 == X_int_0[4] - 2 || 0 == X_int_0[4] - 1 && 0 == X_int_0[0] - 5 && 0 == X_int_0[1] - 3 && 0 == X_int_0[2] - 5 && 0 == X_int_0[3] - 1
 (parsing witness took 7.8499s)
 (directed symex took 31.5700s)

CBMC found legitimate reachability after 5.8046s:
 0 == X_int_0[5] - 6 || 0 == X_int_0[5] - 5 || 0 == X_int_0[5] - 4 || 0 == X_int_0[5] - 3 || 0 == X_int_0[5] - 2 || 0 == X_int_0[5] - 1 && 0 == X_int_0[0] - 5 && 0 == X_int_0[1] - 6 && 0 == X_int_0[2] - 3 && 0 == X_int_0[3] - 5 && 0 == X_int_0[4] - 1
 (concrete witness -> CPA -> parsing witness took 71.2767s)
 (directed symex took 30.4290s)

ESBMC_incr found legitimate reachability after 7.4365s:
 0 == X_int_0[4] - 6 || 0 == X_int_0[4] - 5 || 0 == X_int_0[4] - 4 || 0 == X_int_0[4] - 3 || 0 == X_int_0[4] - 2 || 0 == X_int_0[4] - 1 && 0 == X_int_0[0] - 5 && 0 == X_int_0[1] - 3 && 0 == X_int_0[2] - 5 && 0 == X_int_0[3] - 1
 (concrete witness -> CPA -> parsing witness took 53.6523s)
 (directed symex took 28.8432s)

Symbiotic found legitimate reachability after 7.1376s:
 0 == X_int_0[4] - 6 || 0 == X_int_0[4] - 5 || 0 == X_int_0[4] - 4 || 0 == X_int_0[4] - 3 || 0 == X_int_0[4] - 2 || 0 == X_int_0[4] - 1 && 0 == X_int_0[0] - 5 && 0 == X_int_0[1] - 3 && 0 == X_int_0[2] - 5 && 0 == X_int_0[3] - 1
 (concrete witness -> CPA -> parsing witness took 62.7643s)
 (directed symex took 30.4698s)

Pesco found legitimate reachability after 80.5713s:
 0 == X_int_0[4] - 6 || 0 == X_int_0[4] - 5 || 0 == X_int_0[4] - 4 || 0 == X_int_0[4] - 3 || 0 == X_int_0[4] - 2 || 0 == X_int_0[4] - 1 && 0 == X_int_0[0] - 5 && 0 == X_int_0[1] - 3 && 0 == X_int_0[2] - 5 && 0 == X_int_0[3] - 1
 (parsing witness took 10.0119s)
 (directed symex took 29.6522s)

UTaipan found legitimate reachability after 324.9594s:
 0 == X_int_0[4] - 6 || 0 == X_int_0[4] - 5 || 0 == X_int_0[4] - 4 || 0 == X_int_0[4] - 3 || 0 == X_int_0[4] - 2 || 0 == X_int_0[4] - 1 && 0 == X_int_0[0] - 5 && 0 == X_int_0[1] - 3 && 0 == X_int_0[2] - 5 && 0 == X_int_0[3] - 1
 (parsing witness took 3.5606s)
 (directed symex took 25.6368s)

UKojak found legitimate reachability after 402.2274s:
 0 == X_int_0[4] - 6 || 0 == X_int_0[4] - 5 || 0 == X_int_0[4] - 4 || 0 == X_int_0[4] - 3 || 0 == X_int_0[4] - 2 || 0 == X_int_0[4] - 1 && 0 == X_int_0[0] - 5 && 0 == X_int_0[1] - 3 && 0 == X_int_0[2] - 5 && 0 == X_int_0[3] - 1
 (parsing witness took 2.2730s)
 (directed symex took 22.6701s)

instrumentation took 0.0858s

---------------------------------------------------
iteration 2
---------------------------------------------------

no new reachability evidence found after 804.9245s:
 -> generalizing

trying to block singletons of:
 0 == X_int_0[4] - 6 || 0 == X_int_0[4] - 5 || 0 == X_int_0[4] - 4 || 0 == X_int_0[4] - 3 || 0 == X_int_0[4] - 2 || 0 == X_int_0[4] - 1 && 0 == X_int_0[0] - 5 && 0 == X_int_0[1] - 3 && 0 == X_int_0[2] - 5 && 0 == X_int_0[3] - 1

on conjunction:
 0 == X_int_0[4] - 6 || 0 == X_int_0[4] - 5 || 0 == X_int_0[4] - 4 || 0 == X_int_0[4] - 3 || 0 == X_int_0[4] - 2 || 0 == X_int_0[4] - 1
 (tentative CSC widening took 1.0553s)
 VeriAbs proved unreachability after 256.7642s

on conjunction:
 0 == X_int_0[2] - 5
 (tentative CSC widening took 0.3002s)
 Symbiotic found legitimate reachability after 16.4885s:
 0 == X_int_0[6] - 6 || 0 == X_int_0[6] - 5 || 0 == X_int_0[6] - 4 || 0 == X_int_0[6] - 3 || 0 == X_int_0[6] - 2 || 0 == X_int_0[6] - 1 && 0 == X_int_0[0] - 5 && 0 == X_int_0[1] - 6 && 0 == X_int_0[2] - 3 && 0 == X_int_0[3] - 5 && 0 == X_int_0[4] - 6 && 0 == X_int_0[5] - 1
 (concrete witness -> CPA -> parsing witness took 561.8189s)
 (directed symex took 47.8847s)

on conjunction:
 0 == X_int_0[2] - 5
 (tentative CSC widening took 0.3002s)
 CBMC found legitimate reachability after 32.2591s:
 0 == X_int_0[6] - 6 || 0 == X_int_0[6] - 5 || 0 == X_int_0[6] - 4 || 0 == X_int_0[6] - 3 || 0 == X_int_0[6] - 2 || 0 == X_int_0[6] - 1 && 0 == X_int_0[0] - 5 && 0 == X_int_0[1] - 6 && 0 == X_int_0[2] - 3 && 0 == X_int_0[3] - 5 && 0 == X_int_0[4] - 6 && 0 == X_int_0[5] - 1
 (concrete witness -> CPA -> parsing witness took 577.0827s)
 (directed symex took 33.6091s)

on conjunction:
 0 == X_int_0[1] - 3
 (tentative CSC widening took 0.3001s)
 CBMC found legitimate reachability after 33.4900s:
 0 == X_int_0[6] - 6 || 0 == X_int_0[6] - 5 || 0 == X_int_0[6] - 4 || 0 == X_int_0[6] - 3 || 0 == X_int_0[6] - 2 || 0 == X_int_0[6] - 1 && 0 == X_int_0[0] - 5 && 0 == X_int_0[1] - 6 && 0 == X_int_0[2] - 3 && 0 == X_int_0[3] - 5 && 0 == X_int_0[4] - 3 && 0 == X_int_0[5] - 1
 (concrete witness -> CPA -> parsing witness took 597.3427s)
 (directed symex took 33.8392s)

on conjunction:
 0 == X_int_0[0] - 5
 (tentative CSC widening took 1.5216s)
 VeriAbs found legitimate reachability after 267.2615s:
 0 == X_int_0[6] - 6 || 0 == X_int_0[6] - 5 || 0 == X_int_0[6] - 4 || 0 == X_int_0[6] - 3 || 0 == X_int_0[6] - 2 || 0 == X_int_0[6] - 1 && 0 == X_int_0[0] - 3 && 0 == X_int_0[1] - 2 && 0 == X_int_0[2] - 3 && 0 == X_int_0[3] - 6 && 0 == X_int_0[4] - 5 && 0 == X_int_0[5] - 1
 (parsing witness took 293.5679s)
 (directed symex took 52.2790s)

on conjunction:
 0 == X_int_0[0] - 5
 (tentative CSC widening took 1.5216s)
 Symbiotic found legitimate reachability after 26.1792s:
 0 == X_int_0[6] - 6 || 0 == X_int_0[6] - 5 || 0 == X_int_0[6] - 4 || 0 == X_int_0[6] - 3 || 0 == X_int_0[6] - 2 || 0 == X_int_0[6] - 1 && 0 == X_int_0[0] - 3 && 0 == X_int_0[1] - 2 && 0 == X_int_0[2] - 3 && 0 == X_int_0[3] - 6 && 0 == X_int_0[4] - 5 && 0 == X_int_0[5] - 1
 (concrete witness -> CPA -> parsing witness took 610.7652s)
 (directed symex took 37.2512s)

on conjunction:
 0 == X_int_0[0] - 5
 (tentative CSC widening took 1.5216s)
 CBMC found legitimate reachability after 44.0945s:
 0 == X_int_0[6] - 6 || 0 == X_int_0[6] - 5 || 0 == X_int_0[6] - 4 || 0 == X_int_0[6] - 3 || 0 == X_int_0[6] - 2 || 0 == X_int_0[6] - 1 && 0 == X_int_0[0] - 3 && 0 == X_int_0[1] - 2 && 0 == X_int_0[2] - 3 && 0 == X_int_0[3] - 6 && 0 == X_int_0[4] - 5 && 0 == X_int_0[5] - 1
 (concrete witness -> CPA -> parsing witness took 597.2034s)
 (directed symex took 33.8180s)

on conjunction:
 0 == X_int_0[0] - 5
 (tentative CSC widening took 1.5216s)
 ESBMC_kind found legitimate reachability after 23.2740s:
 0 == X_int_0[6] - 6 || 0 == X_int_0[6] - 5 || 0 == X_int_0[6] - 4 || 0 == X_int_0[6] - 3 || 0 == X_int_0[6] - 2 || 0 == X_int_0[6] - 1 && 0 == X_int_0[0] - 3 && 0 == X_int_0[1] - 2 && 0 == X_int_0[2] - 3 && 0 == X_int_0[3] - 6 && 0 == X_int_0[4] - 5 && 0 == X_int_0[5] - 1
 (concrete witness -> CPA -> parsing witness took 614.3239s)
 (directed symex took 34.4295s)

we successfully blocked the above singleton(s),
so let's try the pairwise combos

running blocking in chunks of 6 until new evidence is found

running blocking in chunks of 6 until new evidence is found

running blocking in chunks of 6 until new evidence is found

