***********************************************************
launching ALPACA on Problem01_label50_false-unreach-call_false-termination.c
***********************************************************

constructing the AST took 0.7326s
initial instrumentation took 0.0777s

---------------------------------------------------
iteration 1
---------------------------------------------------

CPA_BAM_BnB found legitimate reachability after 22.7054s:
 0 == X_int_0[4] - 6 || 0 == X_int_0[4] - 5 || 0 == X_int_0[4] - 4 || 0 == X_int_0[4] - 3 || 0 == X_int_0[4] - 2 || 0 == X_int_0[4] - 1 && 0 == X_int_0[0] - 3 && 0 == X_int_0[1] - 4 && 0 == X_int_0[2] - 4 && 0 == X_int_0[3] - 2
 (parsing witness took 6.7774s)
 (directed symex took 7.9190s)

CPA_Seq found legitimate reachability after 18.1711s:
 0 == X_int_0[4] - 6 || 0 == X_int_0[4] - 5 || 0 == X_int_0[4] - 4 || 0 == X_int_0[4] - 3 || 0 == X_int_0[4] - 2 || 0 == X_int_0[4] - 1 && 0 == X_int_0[0] - 3 && 0 == X_int_0[1] - 4 && 0 == X_int_0[2] - 4 && 0 == X_int_0[3] - 2
 (parsing witness took 13.0132s)
 (directed symex took 7.0989s)

CBMC found legitimate reachability after 7.2615s:
 0 == X_int_0[4] - 6 || 0 == X_int_0[4] - 5 || 0 == X_int_0[4] - 4 || 0 == X_int_0[4] - 3 || 0 == X_int_0[4] - 2 || 0 == X_int_0[4] - 1 && 0 == X_int_0[0] - 3 && 0 == X_int_0[1] - 4 && 0 == X_int_0[2] - 4 && 0 == X_int_0[3] - 2
 (concrete witness -> CPA -> parsing witness took 27.3853s)
 (directed symex took 7.2385s)

ESBMC_incr found legitimate reachability after 8.7482s:
 0 == X_int_0[4] - 6 || 0 == X_int_0[4] - 5 || 0 == X_int_0[4] - 4 || 0 == X_int_0[4] - 3 || 0 == X_int_0[4] - 2 || 0 == X_int_0[4] - 1 && 0 == X_int_0[0] - 3 && 0 == X_int_0[1] - 4 && 0 == X_int_0[2] - 4 && 0 == X_int_0[3] - 2
 (concrete witness -> CPA -> parsing witness took 24.8071s)
 (directed symex took 7.1686s)

Symbiotic found legitimate reachability after 10.3591s:
 0 == X_int_0[4] - 6 || 0 == X_int_0[4] - 5 || 0 == X_int_0[4] - 4 || 0 == X_int_0[4] - 3 || 0 == X_int_0[4] - 2 || 0 == X_int_0[4] - 1 && 0 == X_int_0[0] - 3 && 0 == X_int_0[1] - 4 && 0 == X_int_0[2] - 4 && 0 == X_int_0[3] - 2
 (concrete witness -> CPA -> parsing witness took 23.6752s)
 (directed symex took 7.2118s)

Pesco found legitimate reachability after 25.9677s:
 0 == X_int_0[4] - 6 || 0 == X_int_0[4] - 5 || 0 == X_int_0[4] - 4 || 0 == X_int_0[4] - 3 || 0 == X_int_0[4] - 2 || 0 == X_int_0[4] - 1 && 0 == X_int_0[0] - 3 && 0 == X_int_0[1] - 4 && 0 == X_int_0[2] - 4 && 0 == X_int_0[3] - 2
 (parsing witness took 6.1481s)
 (directed symex took 7.6538s)

VeriAbs found legitimate reachability after 40.3146s:
 0 == X_int_0[4] - 6 || 0 == X_int_0[4] - 5 || 0 == X_int_0[4] - 4 || 0 == X_int_0[4] - 3 || 0 == X_int_0[4] - 2 || 0 == X_int_0[4] - 1 && 0 == X_int_0[0] - 3 && 0 == X_int_0[1] - 4 && 0 == X_int_0[2] - 4 && 0 == X_int_0[3] - 2
 (parsing witness took 8.8720s)
 (directed symex took 6.0406s)

UAutomizer found legitimate reachability after 58.3354s:
 0 == X_int_0[0] - 6 || 0 == X_int_0[0] - 5 || 0 == X_int_0[0] - 4 || 0 == X_int_0[0] - 3 || 0 == X_int_0[0] - 2 || 0 == X_int_0[0] - 1 && 0 == X_int_0[4] - 6 || 0 == X_int_0[4] - 5 || 0 == X_int_0[4] - 4 || 0 == X_int_0[4] - 3 || 0 == X_int_0[4] - 2 || 0 == X_int_0[4] - 1 && 0 != X_int_0[0] - 1 && 0 != X_int_0[0] - 2 && 0 != X_int_0[0] - 4 && 0 != X_int_0[0] - 5 && 0 != X_int_0[0] - 6 && 0 == X_int_0[1] - 4 && 0 == X_int_0[2] - 4 && 0 == X_int_0[3] - 2
 (parsing witness took 4.6732s)
 (directed symex took 6.4401s)

UTaipan found legitimate reachability after 82.9803s:
 0 == X_int_0[4] - 6 || 0 == X_int_0[4] - 5 || 0 == X_int_0[4] - 4 || 0 == X_int_0[4] - 3 || 0 == X_int_0[4] - 2 || 0 == X_int_0[4] - 1 && 0 == X_int_0[0] - 3 && 0 == X_int_0[1] - 4 && 0 == X_int_0[2] - 4 && 0 == X_int_0[3] - 2
 (parsing witness took 1.6726s)
 (directed symex took 5.9692s)

UKojak found legitimate reachability after 169.6771s:
 0 == X_int_0[4] - 6 || 0 == X_int_0[4] - 5 || 0 == X_int_0[4] - 4 || 0 == X_int_0[4] - 3 || 0 == X_int_0[4] - 2 || 0 == X_int_0[4] - 1 && 0 == X_int_0[0] - 3 && 0 == X_int_0[1] - 4 && 0 == X_int_0[2] - 4 && 0 == X_int_0[3] - 2
 (parsing witness took 0.6567s)
 (directed symex took 5.4391s)

instrumentation took 0.0278s

---------------------------------------------------
iteration 2
---------------------------------------------------

CPA_BAM_BnB proved unreachability after 15.9013s

enforcing disjointness took 0.1482s

***********************************************************
terminating ALPACA after 783.1639s
***********************************************************

Comprehensive State Characterization:

  Partition:
    Upper Bound:
      0 == X_int_0[0] - 6 || 0 == X_int_0[0] - 5 || 0 == X_int_0[0] - 4 || 0 == X_int_0[0] - 3 || 0 == X_int_0[0] - 2 || 0 == X_int_0[0] - 1 && 0 == X_int_0[4] - 6 || 0 == X_int_0[4] - 5 || 0 == X_int_0[4] - 4 || 0 == X_int_0[4] - 3 || 0 == X_int_0[4] - 2 || 0 == X_int_0[4] - 1 && 0 != X_int_0[0] - 1 && 0 != X_int_0[0] - 2 && 0 != X_int_0[0] - 4 && 0 != X_int_0[0] - 5 && 0 != X_int_0[0] - 6 && 0 == X_int_0[1] - 4 && 0 == X_int_0[2] - 4 && 0 == X_int_0[3] - 2
    Lower Bound:
      0 == X_int_0[0] - 6 || 0 == X_int_0[0] - 5 || 0 == X_int_0[0] - 4 || 0 == X_int_0[0] - 3 || 0 == X_int_0[0] - 2 || 0 == X_int_0[0] - 1 && 0 == X_int_0[4] - 6 || 0 == X_int_0[4] - 5 || 0 == X_int_0[4] - 4 || 0 == X_int_0[4] - 3 || 0 == X_int_0[4] - 2 || 0 == X_int_0[4] - 1 && 0 != X_int_0[0] - 1 && 0 != X_int_0[0] - 2 && 0 != X_int_0[0] - 4 && 0 != X_int_0[0] - 5 && 0 != X_int_0[0] - 6 && 0 == X_int_0[1] - 4 && 0 == X_int_0[2] - 4 && 0 == X_int_0[3] - 2
    Assumptions:
      X_int_0[0] - 1073741823 <= 0 && 0 <= X_int_0[0] + 1073741823 && X_int_0[1] - 1073741823 <= 0 && 0 <= X_int_0[1] + 1073741823 && X_int_0[2] - 1073741823 <= 0 && 0 <= X_int_0[2] + 1073741823 && X_int_0[3] - 1073741823 <= 0 && 0 <= X_int_0[3] + 1073741823 && X_int_0[4] - 1073741823 <= 0 && 0 <= X_int_0[4] + 1073741823

  Partition:
    Upper Bound:
      0 == X_int_0[4] - 6 || 0 == X_int_0[4] - 5 || 0 == X_int_0[4] - 4 || 0 == X_int_0[4] - 3 || 0 == X_int_0[4] - 2 || 0 == X_int_0[4] - 1 && 0 == X_int_0[0] - 3 && 0 == X_int_0[1] - 4 && 0 == X_int_0[2] - 4 && 0 == X_int_0[3] - 2
    Lower Bound:
      0 == X_int_0[4] - 6 || 0 == X_int_0[4] - 5 || 0 == X_int_0[4] - 4 || 0 == X_int_0[4] - 3 || 0 == X_int_0[4] - 2 || 0 == X_int_0[4] - 1 && 0 == X_int_0[0] - 3 && 0 == X_int_0[1] - 4 && 0 == X_int_0[2] - 4 && 0 == X_int_0[3] - 2
    Assumptions:
      X_int_0[0] - 1073741823 <= 0 && 0 <= X_int_0[0] + 1073741823 && X_int_0[1] - 1073741823 <= 0 && 0 <= X_int_0[1] + 1073741823 && X_int_0[2] - 1073741823 <= 0 && 0 <= X_int_0[2] + 1073741823 && X_int_0[3] - 1073741823 <= 0 && 0 <= X_int_0[3] + 1073741823 && X_int_0[4] - 1073741823 <= 0 && 0 <= X_int_0[4] + 1073741823

(upper bounds do NOT cover the entire domain)
